{
	"stages" : [
		{
			"$cursor" : {
				"queryPlanner" : {
					"plannerVersion" : 1,
					"namespace" : "tpch_1.scale1",
					"indexFilterSet" : false,
					"parsedQuery" : {
						
					},
					"queryHash" : "7D406A01",
					"planCacheKey" : "7D406A01",
					"winningPlan" : {
						"stage" : "PROJECTION_DEFAULT",
						"transformBy" : {
							"orders" : "$c_orders",
							"_id" : false
						},
						"inputStage" : {
							"stage" : "COLLSCAN",
							"direction" : "forward"
						}
					},
					"rejectedPlans" : [ ]
				},
				"executionStats" : {
					"executionSuccess" : true,
					"nReturned" : 150000,
					"executionTimeMillis" : 11497,
					"totalKeysExamined" : 0,
					"totalDocsExamined" : 150000,
					"executionStages" : {
						"stage" : "PROJECTION_DEFAULT",
						"nReturned" : 150000,
						"executionTimeMillisEstimate" : 2313,
						"works" : 150002,
						"advanced" : 150000,
						"needTime" : 1,
						"needYield" : 0,
						"saveState" : 1238,
						"restoreState" : 1238,
						"isEOF" : 1,
						"transformBy" : {
							"orders" : "$c_orders",
							"_id" : false
						},
						"inputStage" : {
							"stage" : "COLLSCAN",
							"nReturned" : 150000,
							"executionTimeMillisEstimate" : 2019,
							"works" : 150002,
							"advanced" : 150000,
							"needTime" : 1,
							"needYield" : 0,
							"saveState" : 1238,
							"restoreState" : 1238,
							"isEOF" : 1,
							"direction" : "forward",
							"docsExamined" : 150000
						}
					},
					"allPlansExecution" : [ ]
				}
			},
			"nReturned" : NumberLong(150000),
			"executionTimeMillisEstimate" : NumberLong(5048)
		},
		{
			"$unwind" : {
				"path" : "$orders"
			},
			"nReturned" : NumberLong(1499999),
			"executionTimeMillisEstimate" : NumberLong(5535)
		},
		{
			"$project" : {
				"_id" : true,
				"orderpriority" : "$orders.o_orderpriority",
				"lineitems" : {
					"$filter" : {
						"input" : "$orders.o_lineitems",
						"as" : "l",
						"cond" : {
							"$and" : [
								{
									"$in" : [
										"$$l.l_shipmode",
										{
											"$const" : [
												"RAIL",
												"REG AIR"
											]
										}
									]
								},
								{
									"$lt" : [
										"$$l.l_commitdate",
										"$$l.l_receiptdate"
									]
								},
								{
									"$lt" : [
										"$$l.l_shipdate",
										"$$l.l_commitdate"
									]
								},
								{
									"$gte" : [
										"$$l.l_receiptdate",
										{
											"$const" : ISODate("1992-01-01T00:00:00Z")
										}
									]
								},
								{
									"$lt" : [
										"$$l.l_receiptdate",
										{
											"$const" : ISODate("1993-01-01T00:00:00Z")
										}
									]
								}
							]
						}
					}
				}
			},
			"nReturned" : NumberLong(1499999),
			"executionTimeMillisEstimate" : NumberLong(11331)
		},
		{
			"$unwind" : {
				"path" : "$lineitems"
			},
			"nReturned" : NumberLong(25034),
			"executionTimeMillisEstimate" : NumberLong(11478)
		},
		{
			"$project" : {
				"_id" : true,
				"orderpriority" : true,
				"l_shipmode" : "$lineitems.l_shipmode"
			},
			"nReturned" : NumberLong(25034),
			"executionTimeMillisEstimate" : NumberLong(11478)
		},
		{
			"$group" : {
				"_id" : "$l_shipmode",
				"high_line_count" : {
					"$sum" : {
						"$switch" : {
							"branches" : [
								{
									"case" : {
										"$or" : [
											{
												"$eq" : [
													"$orderpriority",
													{
														"$const" : "1-URGENT"
													}
												]
											},
											{
												"$eq" : [
													"$orderpriority",
													{
														"$const" : "2-HIGH"
													}
												]
											}
										]
									},
									"then" : {
										"$const" : 1
									}
								}
							],
							"default" : {
								"$const" : 0
							}
						}
					}
				},
				"low_line_count" : {
					"$sum" : {
						"$switch" : {
							"branches" : [
								{
									"case" : {
										"$and" : [
											{
												"$ne" : [
													"$orderpriority",
													{
														"$const" : "1-URGENT"
													}
												]
											},
											{
												"$ne" : [
													"$orderpriority",
													{
														"$const" : "2-HIGH"
													}
												]
											}
										]
									},
									"then" : {
										"$const" : 1
									}
								}
							],
							"default" : {
								"$const" : 0
							}
						}
					}
				}
			},
			"nReturned" : NumberLong(2),
			"executionTimeMillisEstimate" : NumberLong(11493)
		},
		{
			"$sort" : {
				"sortKey" : {
					"_id" : 1
				}
			},
			"nReturned" : NumberLong(2),
			"executionTimeMillisEstimate" : NumberLong(11493)
		}
	],
	"serverInfo" : {
		"host" : "dblab.cecsresearch.org",
		"port" : 27017,
		"version" : "4.4.12",
		"gitVersion" : "51475a8c4d9856eb1461137e7539a0a763cc85dc"
	},
	"ok" : 1
}


{
	"stages" : [
		{
			"$cursor" : {
				"queryPlanner" : {
					"plannerVersion" : 1,
					"namespace" : "tpch_1.scale1",
					"indexFilterSet" : false,
					"parsedQuery" : {
						
					},
					"queryHash" : "7D406A01",
					"planCacheKey" : "7D406A01",
					"winningPlan" : {
						"stage" : "PROJECTION_DEFAULT",
						"transformBy" : {
							"orders" : "$c_orders",
							"_id" : false
						},
						"inputStage" : {
							"stage" : "COLLSCAN",
							"direction" : "forward"
						}
					},
					"rejectedPlans" : [ ]
				},
				"executionStats" : {
					"executionSuccess" : true,
					"nReturned" : 150000,
					"executionTimeMillis" : 11714,
					"totalKeysExamined" : 0,
					"totalDocsExamined" : 150000,
					"executionStages" : {
						"stage" : "PROJECTION_DEFAULT",
						"nReturned" : 150000,
						"executionTimeMillisEstimate" : 2336,
						"works" : 150002,
						"advanced" : 150000,
						"needTime" : 1,
						"needYield" : 0,
						"saveState" : 1236,
						"restoreState" : 1236,
						"isEOF" : 1,
						"transformBy" : {
							"orders" : "$c_orders",
							"_id" : false
						},
						"inputStage" : {
							"stage" : "COLLSCAN",
							"nReturned" : 150000,
							"executionTimeMillisEstimate" : 2058,
							"works" : 150002,
							"advanced" : 150000,
							"needTime" : 1,
							"needYield" : 0,
							"saveState" : 1236,
							"restoreState" : 1236,
							"isEOF" : 1,
							"direction" : "forward",
							"docsExamined" : 150000
						}
					},
					"allPlansExecution" : [ ]
				}
			},
			"nReturned" : NumberLong(150000),
			"executionTimeMillisEstimate" : NumberLong(5240)
		},
		{
			"$unwind" : {
				"path" : "$orders"
			},
			"nReturned" : NumberLong(1499999),
			"executionTimeMillisEstimate" : NumberLong(5743)
		},
		{
			"$project" : {
				"_id" : true,
				"orderpriority" : "$orders.o_orderpriority",
				"lineitems" : {
					"$filter" : {
						"input" : "$orders.o_lineitems",
						"as" : "l",
						"cond" : {
							"$and" : [
								{
									"$in" : [
										"$$l.l_shipmode",
										{
											"$const" : [
												"RAIL",
												"REG AIR"
											]
										}
									]
								},
								{
									"$lt" : [
										"$$l.l_commitdate",
										"$$l.l_receiptdate"
									]
								},
								{
									"$lt" : [
										"$$l.l_shipdate",
										"$$l.l_commitdate"
									]
								},
								{
									"$gte" : [
										"$$l.l_receiptdate",
										{
											"$const" : ISODate("1992-01-01T00:00:00Z")
										}
									]
								},
								{
									"$lt" : [
										"$$l.l_receiptdate",
										{
											"$const" : ISODate("1993-01-01T00:00:00Z")
										}
									]
								}
							]
						}
					}
				}
			},
			"nReturned" : NumberLong(1499999),
			"executionTimeMillisEstimate" : NumberLong(11497)
		},
		{
			"$unwind" : {
				"path" : "$lineitems"
			},
			"nReturned" : NumberLong(25034),
			"executionTimeMillisEstimate" : NumberLong(11681)
		},
		{
			"$project" : {
				"_id" : true,
				"orderpriority" : true,
				"l_shipmode" : "$lineitems.l_shipmode"
			},
			"nReturned" : NumberLong(25034),
			"executionTimeMillisEstimate" : NumberLong(11681)
		},
		{
			"$group" : {
				"_id" : "$l_shipmode",
				"high_line_count" : {
					"$sum" : {
						"$switch" : {
							"branches" : [
								{
									"case" : {
										"$or" : [
											{
												"$eq" : [
													"$orderpriority",
													{
														"$const" : "1-URGENT"
													}
												]
											},
											{
												"$eq" : [
													"$orderpriority",
													{
														"$const" : "2-HIGH"
													}
												]
											}
										]
									},
									"then" : {
										"$const" : 1
									}
								}
							],
							"default" : {
								"$const" : 0
							}
						}
					}
				},
				"low_line_count" : {
					"$sum" : {
						"$switch" : {
							"branches" : [
								{
									"case" : {
										"$and" : [
											{
												"$ne" : [
													"$orderpriority",
													{
														"$const" : "1-URGENT"
													}
												]
											},
											{
												"$ne" : [
													"$orderpriority",
													{
														"$const" : "2-HIGH"
													}
												]
											}
										]
									},
									"then" : {
										"$const" : 1
									}
								}
							],
							"default" : {
								"$const" : 0
							}
						}
					}
				}
			},
			"nReturned" : NumberLong(2),
			"executionTimeMillisEstimate" : NumberLong(11706)
		},
		{
			"$sort" : {
				"sortKey" : {
					"_id" : 1
				}
			},
			"nReturned" : NumberLong(2),
			"executionTimeMillisEstimate" : NumberLong(11706)
		}
	],
	"serverInfo" : {
		"host" : "dblab.cecsresearch.org",
		"port" : 27017,
		"version" : "4.4.12",
		"gitVersion" : "51475a8c4d9856eb1461137e7539a0a763cc85dc"
	},
	"ok" : 1
}


{
	"stages" : [
		{
			"$cursor" : {
				"queryPlanner" : {
					"plannerVersion" : 1,
					"namespace" : "tpch_1.scale1",
					"indexFilterSet" : false,
					"parsedQuery" : {
						
					},
					"queryHash" : "7D406A01",
					"planCacheKey" : "7D406A01",
					"winningPlan" : {
						"stage" : "PROJECTION_DEFAULT",
						"transformBy" : {
							"orders" : "$c_orders",
							"_id" : false
						},
						"inputStage" : {
							"stage" : "COLLSCAN",
							"direction" : "forward"
						}
					},
					"rejectedPlans" : [ ]
				},
				"executionStats" : {
					"executionSuccess" : true,
					"nReturned" : 150000,
					"executionTimeMillis" : 11267,
					"totalKeysExamined" : 0,
					"totalDocsExamined" : 150000,
					"executionStages" : {
						"stage" : "PROJECTION_DEFAULT",
						"nReturned" : 150000,
						"executionTimeMillisEstimate" : 2189,
						"works" : 150002,
						"advanced" : 150000,
						"needTime" : 1,
						"needYield" : 0,
						"saveState" : 1236,
						"restoreState" : 1236,
						"isEOF" : 1,
						"transformBy" : {
							"orders" : "$c_orders",
							"_id" : false
						},
						"inputStage" : {
							"stage" : "COLLSCAN",
							"nReturned" : 150000,
							"executionTimeMillisEstimate" : 1912,
							"works" : 150002,
							"advanced" : 150000,
							"needTime" : 1,
							"needYield" : 0,
							"saveState" : 1236,
							"restoreState" : 1236,
							"isEOF" : 1,
							"direction" : "forward",
							"docsExamined" : 150000
						}
					},
					"allPlansExecution" : [ ]
				}
			},
			"nReturned" : NumberLong(150000),
			"executionTimeMillisEstimate" : NumberLong(5015)
		},
		{
			"$unwind" : {
				"path" : "$orders"
			},
			"nReturned" : NumberLong(1499999),
			"executionTimeMillisEstimate" : NumberLong(5409)
		},
		{
			"$project" : {
				"_id" : true,
				"orderpriority" : "$orders.o_orderpriority",
				"lineitems" : {
					"$filter" : {
						"input" : "$orders.o_lineitems",
						"as" : "l",
						"cond" : {
							"$and" : [
								{
									"$in" : [
										"$$l.l_shipmode",
										{
											"$const" : [
												"RAIL",
												"REG AIR"
											]
										}
									]
								},
								{
									"$lt" : [
										"$$l.l_commitdate",
										"$$l.l_receiptdate"
									]
								},
								{
									"$lt" : [
										"$$l.l_shipdate",
										"$$l.l_commitdate"
									]
								},
								{
									"$gte" : [
										"$$l.l_receiptdate",
										{
											"$const" : ISODate("1992-01-01T00:00:00Z")
										}
									]
								},
								{
									"$lt" : [
										"$$l.l_receiptdate",
										{
											"$const" : ISODate("1993-01-01T00:00:00Z")
										}
									]
								}
							]
						}
					}
				}
			},
			"nReturned" : NumberLong(1499999),
			"executionTimeMillisEstimate" : NumberLong(11089)
		},
		{
			"$unwind" : {
				"path" : "$lineitems"
			},
			"nReturned" : NumberLong(25034),
			"executionTimeMillisEstimate" : NumberLong(11252)
		},
		{
			"$project" : {
				"_id" : true,
				"orderpriority" : true,
				"l_shipmode" : "$lineitems.l_shipmode"
			},
			"nReturned" : NumberLong(25034),
			"executionTimeMillisEstimate" : NumberLong(11252)
		},
		{
			"$group" : {
				"_id" : "$l_shipmode",
				"high_line_count" : {
					"$sum" : {
						"$switch" : {
							"branches" : [
								{
									"case" : {
										"$or" : [
											{
												"$eq" : [
													"$orderpriority",
													{
														"$const" : "1-URGENT"
													}
												]
											},
											{
												"$eq" : [
													"$orderpriority",
													{
														"$const" : "2-HIGH"
													}
												]
											}
										]
									},
									"then" : {
										"$const" : 1
									}
								}
							],
							"default" : {
								"$const" : 0
							}
						}
					}
				},
				"low_line_count" : {
					"$sum" : {
						"$switch" : {
							"branches" : [
								{
									"case" : {
										"$and" : [
											{
												"$ne" : [
													"$orderpriority",
													{
														"$const" : "1-URGENT"
													}
												]
											},
											{
												"$ne" : [
													"$orderpriority",
													{
														"$const" : "2-HIGH"
													}
												]
											}
										]
									},
									"then" : {
										"$const" : 1
									}
								}
							],
							"default" : {
								"$const" : 0
							}
						}
					}
				}
			},
			"nReturned" : NumberLong(2),
			"executionTimeMillisEstimate" : NumberLong(11266)
		},
		{
			"$sort" : {
				"sortKey" : {
					"_id" : 1
				}
			},
			"nReturned" : NumberLong(2),
			"executionTimeMillisEstimate" : NumberLong(11266)
		}
	],
	"serverInfo" : {
		"host" : "dblab.cecsresearch.org",
		"port" : 27017,
		"version" : "4.4.12",
		"gitVersion" : "51475a8c4d9856eb1461137e7539a0a763cc85dc"
	},
	"ok" : 1
}


{
	"stages" : [
		{
			"$cursor" : {
				"queryPlanner" : {
					"plannerVersion" : 1,
					"namespace" : "tpch_1.scale1",
					"indexFilterSet" : false,
					"parsedQuery" : {
						
					},
					"queryHash" : "7D406A01",
					"planCacheKey" : "7D406A01",
					"winningPlan" : {
						"stage" : "PROJECTION_DEFAULT",
						"transformBy" : {
							"orders" : "$c_orders",
							"_id" : false
						},
						"inputStage" : {
							"stage" : "COLLSCAN",
							"direction" : "forward"
						}
					},
					"rejectedPlans" : [ ]
				},
				"executionStats" : {
					"executionSuccess" : true,
					"nReturned" : 150000,
					"executionTimeMillis" : 11405,
					"totalKeysExamined" : 0,
					"totalDocsExamined" : 150000,
					"executionStages" : {
						"stage" : "PROJECTION_DEFAULT",
						"nReturned" : 150000,
						"executionTimeMillisEstimate" : 2226,
						"works" : 150002,
						"advanced" : 150000,
						"needTime" : 1,
						"needYield" : 0,
						"saveState" : 1236,
						"restoreState" : 1236,
						"isEOF" : 1,
						"transformBy" : {
							"orders" : "$c_orders",
							"_id" : false
						},
						"inputStage" : {
							"stage" : "COLLSCAN",
							"nReturned" : 150000,
							"executionTimeMillisEstimate" : 1880,
							"works" : 150002,
							"advanced" : 150000,
							"needTime" : 1,
							"needYield" : 0,
							"saveState" : 1236,
							"restoreState" : 1236,
							"isEOF" : 1,
							"direction" : "forward",
							"docsExamined" : 150000
						}
					},
					"allPlansExecution" : [ ]
				}
			},
			"nReturned" : NumberLong(150000),
			"executionTimeMillisEstimate" : NumberLong(4897)
		},
		{
			"$unwind" : {
				"path" : "$orders"
			},
			"nReturned" : NumberLong(1499999),
			"executionTimeMillisEstimate" : NumberLong(5340)
		},
		{
			"$project" : {
				"_id" : true,
				"orderpriority" : "$orders.o_orderpriority",
				"lineitems" : {
					"$filter" : {
						"input" : "$orders.o_lineitems",
						"as" : "l",
						"cond" : {
							"$and" : [
								{
									"$in" : [
										"$$l.l_shipmode",
										{
											"$const" : [
												"RAIL",
												"REG AIR"
											]
										}
									]
								},
								{
									"$lt" : [
										"$$l.l_commitdate",
										"$$l.l_receiptdate"
									]
								},
								{
									"$lt" : [
										"$$l.l_shipdate",
										"$$l.l_commitdate"
									]
								},
								{
									"$gte" : [
										"$$l.l_receiptdate",
										{
											"$const" : ISODate("1992-01-01T00:00:00Z")
										}
									]
								},
								{
									"$lt" : [
										"$$l.l_receiptdate",
										{
											"$const" : ISODate("1993-01-01T00:00:00Z")
										}
									]
								}
							]
						}
					}
				}
			},
			"nReturned" : NumberLong(1499999),
			"executionTimeMillisEstimate" : NumberLong(11126)
		},
		{
			"$unwind" : {
				"path" : "$lineitems"
			},
			"nReturned" : NumberLong(25034),
			"executionTimeMillisEstimate" : NumberLong(11353)
		},
		{
			"$project" : {
				"_id" : true,
				"orderpriority" : true,
				"l_shipmode" : "$lineitems.l_shipmode"
			},
			"nReturned" : NumberLong(25034),
			"executionTimeMillisEstimate" : NumberLong(11367)
		},
		{
			"$group" : {
				"_id" : "$l_shipmode",
				"high_line_count" : {
					"$sum" : {
						"$switch" : {
							"branches" : [
								{
									"case" : {
										"$or" : [
											{
												"$eq" : [
													"$orderpriority",
													{
														"$const" : "1-URGENT"
													}
												]
											},
											{
												"$eq" : [
													"$orderpriority",
													{
														"$const" : "2-HIGH"
													}
												]
											}
										]
									},
									"then" : {
										"$const" : 1
									}
								}
							],
							"default" : {
								"$const" : 0
							}
						}
					}
				},
				"low_line_count" : {
					"$sum" : {
						"$switch" : {
							"branches" : [
								{
									"case" : {
										"$and" : [
											{
												"$ne" : [
													"$orderpriority",
													{
														"$const" : "1-URGENT"
													}
												]
											},
											{
												"$ne" : [
													"$orderpriority",
													{
														"$const" : "2-HIGH"
													}
												]
											}
										]
									},
									"then" : {
										"$const" : 1
									}
								}
							],
							"default" : {
								"$const" : 0
							}
						}
					}
				}
			},
			"nReturned" : NumberLong(2),
			"executionTimeMillisEstimate" : NumberLong(11397)
		},
		{
			"$sort" : {
				"sortKey" : {
					"_id" : 1
				}
			},
			"nReturned" : NumberLong(2),
			"executionTimeMillisEstimate" : NumberLong(11397)
		}
	],
	"serverInfo" : {
		"host" : "dblab.cecsresearch.org",
		"port" : 27017,
		"version" : "4.4.12",
		"gitVersion" : "51475a8c4d9856eb1461137e7539a0a763cc85dc"
	},
	"ok" : 1
}


{
	"stages" : [
		{
			"$cursor" : {
				"queryPlanner" : {
					"plannerVersion" : 1,
					"namespace" : "tpch_1.scale1",
					"indexFilterSet" : false,
					"parsedQuery" : {
						
					},
					"queryHash" : "7D406A01",
					"planCacheKey" : "7D406A01",
					"winningPlan" : {
						"stage" : "PROJECTION_DEFAULT",
						"transformBy" : {
							"orders" : "$c_orders",
							"_id" : false
						},
						"inputStage" : {
							"stage" : "COLLSCAN",
							"direction" : "forward"
						}
					},
					"rejectedPlans" : [ ]
				},
				"executionStats" : {
					"executionSuccess" : true,
					"nReturned" : 150000,
					"executionTimeMillis" : 11536,
					"totalKeysExamined" : 0,
					"totalDocsExamined" : 150000,
					"executionStages" : {
						"stage" : "PROJECTION_DEFAULT",
						"nReturned" : 150000,
						"executionTimeMillisEstimate" : 2389,
						"works" : 150002,
						"advanced" : 150000,
						"needTime" : 1,
						"needYield" : 0,
						"saveState" : 1233,
						"restoreState" : 1233,
						"isEOF" : 1,
						"transformBy" : {
							"orders" : "$c_orders",
							"_id" : false
						},
						"inputStage" : {
							"stage" : "COLLSCAN",
							"nReturned" : 150000,
							"executionTimeMillisEstimate" : 2074,
							"works" : 150002,
							"advanced" : 150000,
							"needTime" : 1,
							"needYield" : 0,
							"saveState" : 1233,
							"restoreState" : 1233,
							"isEOF" : 1,
							"direction" : "forward",
							"docsExamined" : 150000
						}
					},
					"allPlansExecution" : [ ]
				}
			},
			"nReturned" : NumberLong(150000),
			"executionTimeMillisEstimate" : NumberLong(5183)
		},
		{
			"$unwind" : {
				"path" : "$orders"
			},
			"nReturned" : NumberLong(1499999),
			"executionTimeMillisEstimate" : NumberLong(5650)
		},
		{
			"$project" : {
				"_id" : true,
				"orderpriority" : "$orders.o_orderpriority",
				"lineitems" : {
					"$filter" : {
						"input" : "$orders.o_lineitems",
						"as" : "l",
						"cond" : {
							"$and" : [
								{
									"$in" : [
										"$$l.l_shipmode",
										{
											"$const" : [
												"RAIL",
												"REG AIR"
											]
										}
									]
								},
								{
									"$lt" : [
										"$$l.l_commitdate",
										"$$l.l_receiptdate"
									]
								},
								{
									"$lt" : [
										"$$l.l_shipdate",
										"$$l.l_commitdate"
									]
								},
								{
									"$gte" : [
										"$$l.l_receiptdate",
										{
											"$const" : ISODate("1992-01-01T00:00:00Z")
										}
									]
								},
								{
									"$lt" : [
										"$$l.l_receiptdate",
										{
											"$const" : ISODate("1993-01-01T00:00:00Z")
										}
									]
								}
							]
						}
					}
				}
			},
			"nReturned" : NumberLong(1499999),
			"executionTimeMillisEstimate" : NumberLong(11264)
		},
		{
			"$unwind" : {
				"path" : "$lineitems"
			},
			"nReturned" : NumberLong(25034),
			"executionTimeMillisEstimate" : NumberLong(11466)
		},
		{
			"$project" : {
				"_id" : true,
				"orderpriority" : true,
				"l_shipmode" : "$lineitems.l_shipmode"
			},
			"nReturned" : NumberLong(25034),
			"executionTimeMillisEstimate" : NumberLong(11479)
		},
		{
			"$group" : {
				"_id" : "$l_shipmode",
				"high_line_count" : {
					"$sum" : {
						"$switch" : {
							"branches" : [
								{
									"case" : {
										"$or" : [
											{
												"$eq" : [
													"$orderpriority",
													{
														"$const" : "1-URGENT"
													}
												]
											},
											{
												"$eq" : [
													"$orderpriority",
													{
														"$const" : "2-HIGH"
													}
												]
											}
										]
									},
									"then" : {
										"$const" : 1
									}
								}
							],
							"default" : {
								"$const" : 0
							}
						}
					}
				},
				"low_line_count" : {
					"$sum" : {
						"$switch" : {
							"branches" : [
								{
									"case" : {
										"$and" : [
											{
												"$ne" : [
													"$orderpriority",
													{
														"$const" : "1-URGENT"
													}
												]
											},
											{
												"$ne" : [
													"$orderpriority",
													{
														"$const" : "2-HIGH"
													}
												]
											}
										]
									},
									"then" : {
										"$const" : 1
									}
								}
							],
							"default" : {
								"$const" : 0
							}
						}
					}
				}
			},
			"nReturned" : NumberLong(2),
			"executionTimeMillisEstimate" : NumberLong(11531)
		},
		{
			"$sort" : {
				"sortKey" : {
					"_id" : 1
				}
			},
			"nReturned" : NumberLong(2),
			"executionTimeMillisEstimate" : NumberLong(11531)
		}
	],
	"serverInfo" : {
		"host" : "dblab.cecsresearch.org",
		"port" : 27017,
		"version" : "4.4.12",
		"gitVersion" : "51475a8c4d9856eb1461137e7539a0a763cc85dc"
	},
	"ok" : 1
}


