{
	"stages" : [
		{
			"$cursor" : {
				"queryPlanner" : {
					"plannerVersion" : 1,
					"namespace" : "tpch_1.scale1",
					"indexFilterSet" : false,
					"parsedQuery" : {
						
					},
					"queryHash" : "7D406A01",
					"planCacheKey" : "7D406A01",
					"winningPlan" : {
						"stage" : "PROJECTION_SIMPLE",
						"transformBy" : {
							"c_orders" : 1,
							"_id" : 0
						},
						"inputStage" : {
							"stage" : "COLLSCAN",
							"direction" : "forward"
						}
					},
					"rejectedPlans" : [ ]
				},
				"executionStats" : {
					"executionSuccess" : true,
					"nReturned" : 3750000,
					"executionTimeMillis" : 255257,
					"totalKeysExamined" : 0,
					"totalDocsExamined" : 3750000,
					"executionStages" : {
						"stage" : "PROJECTION_SIMPLE",
						"nReturned" : 3750000,
						"executionTimeMillisEstimate" : 67204,
						"works" : 3750002,
						"advanced" : 3750000,
						"needTime" : 1,
						"needYield" : 0,
						"saveState" : 29956,
						"restoreState" : 29956,
						"isEOF" : 1,
						"transformBy" : {
							"c_orders" : 1,
							"_id" : 0
						},
						"inputStage" : {
							"stage" : "COLLSCAN",
							"nReturned" : 3750000,
							"executionTimeMillisEstimate" : 62653,
							"works" : 3750002,
							"advanced" : 3750000,
							"needTime" : 1,
							"needYield" : 0,
							"saveState" : 29956,
							"restoreState" : 29956,
							"isEOF" : 1,
							"direction" : "forward",
							"docsExamined" : 3750000
						}
					},
					"allPlansExecution" : [ ]
				}
			},
			"nReturned" : NumberLong(3750000),
			"executionTimeMillisEstimate" : NumberLong(131772)
		},
		{
			"$unwind" : {
				"path" : "$c_orders"
			},
			"nReturned" : NumberLong(37499999),
			"executionTimeMillisEstimate" : NumberLong(151868)
		},
		{
			"$project" : {
				"_id" : "$c_orders.o_orderkey",
				"lineitems" : {
					"$filter" : {
						"input" : "$c_orders.o_lineitems",
						"as" : "l",
						"cond" : {
							"$and" : [
								{
									"$gte" : [
										"$$l.l_shipdate",
										{
											"$const" : ISODate("1992-04-30T00:00:00Z")
										}
									]
								},
								{
									"$lt" : [
										"$$l.l_shipdate",
										{
											"$const" : ISODate("1993-04-30T00:00:00Z")
										}
									]
								},
								{
									"$gte" : [
										"$$l.l_discount",
										{
											"$const" : 0.07
										}
									]
								},
								{
									"$lte" : [
										"$$l.l_discount",
										{
											"$const" : 0.09
										}
									]
								},
								{
									"$lt" : [
										"$$l.l_quantity",
										{
											"$const" : 24
										}
									]
								}
							]
						}
					}
				}
			},
			"nReturned" : NumberLong(37499999),
			"executionTimeMillisEstimate" : NumberLong(248541)
		},
		{
			"$unwind" : {
				"path" : "$lineitems"
			},
			"nReturned" : NumberLong(2856730),
			"executionTimeMillisEstimate" : NumberLong(253753)
		},
		{
			"$group" : {
				"_id" : {
					"$const" : null
				},
				"revenue" : {
					"$sum" : {
						"$multiply" : [
							"$lineitems.l_extendedprice",
							"$lineitems.l_discount"
						]
					}
				}
			},
			"nReturned" : NumberLong(1),
			"executionTimeMillisEstimate" : NumberLong(255255)
		}
	],
	"serverInfo" : {
		"host" : "dblab.cecsresearch.org",
		"port" : 27017,
		"version" : "4.4.12",
		"gitVersion" : "51475a8c4d9856eb1461137e7539a0a763cc85dc"
	},
	"ok" : 1
}


{
	"stages" : [
		{
			"$cursor" : {
				"queryPlanner" : {
					"plannerVersion" : 1,
					"namespace" : "tpch_1.scale1",
					"indexFilterSet" : false,
					"parsedQuery" : {
						
					},
					"queryHash" : "7D406A01",
					"planCacheKey" : "7D406A01",
					"winningPlan" : {
						"stage" : "PROJECTION_SIMPLE",
						"transformBy" : {
							"c_orders" : 1,
							"_id" : 0
						},
						"inputStage" : {
							"stage" : "COLLSCAN",
							"direction" : "forward"
						}
					},
					"rejectedPlans" : [ ]
				},
				"executionStats" : {
					"executionSuccess" : true,
					"nReturned" : 3750000,
					"executionTimeMillis" : 252051,
					"totalKeysExamined" : 0,
					"totalDocsExamined" : 3750000,
					"executionStages" : {
						"stage" : "PROJECTION_SIMPLE",
						"nReturned" : 3750000,
						"executionTimeMillisEstimate" : 66456,
						"works" : 3750002,
						"advanced" : 3750000,
						"needTime" : 1,
						"needYield" : 0,
						"saveState" : 29895,
						"restoreState" : 29895,
						"isEOF" : 1,
						"transformBy" : {
							"c_orders" : 1,
							"_id" : 0
						},
						"inputStage" : {
							"stage" : "COLLSCAN",
							"nReturned" : 3750000,
							"executionTimeMillisEstimate" : 61882,
							"works" : 3750002,
							"advanced" : 3750000,
							"needTime" : 1,
							"needYield" : 0,
							"saveState" : 29895,
							"restoreState" : 29895,
							"isEOF" : 1,
							"direction" : "forward",
							"docsExamined" : 3750000
						}
					},
					"allPlansExecution" : [ ]
				}
			},
			"nReturned" : NumberLong(3750000),
			"executionTimeMillisEstimate" : NumberLong(131070)
		},
		{
			"$unwind" : {
				"path" : "$c_orders"
			},
			"nReturned" : NumberLong(37499999),
			"executionTimeMillisEstimate" : NumberLong(152008)
		},
		{
			"$project" : {
				"_id" : "$c_orders.o_orderkey",
				"lineitems" : {
					"$filter" : {
						"input" : "$c_orders.o_lineitems",
						"as" : "l",
						"cond" : {
							"$and" : [
								{
									"$gte" : [
										"$$l.l_shipdate",
										{
											"$const" : ISODate("1992-04-30T00:00:00Z")
										}
									]
								},
								{
									"$lt" : [
										"$$l.l_shipdate",
										{
											"$const" : ISODate("1993-04-30T00:00:00Z")
										}
									]
								},
								{
									"$gte" : [
										"$$l.l_discount",
										{
											"$const" : 0.07
										}
									]
								},
								{
									"$lte" : [
										"$$l.l_discount",
										{
											"$const" : 0.09
										}
									]
								},
								{
									"$lt" : [
										"$$l.l_quantity",
										{
											"$const" : 24
										}
									]
								}
							]
						}
					}
				}
			},
			"nReturned" : NumberLong(37499999),
			"executionTimeMillisEstimate" : NumberLong(245773)
		},
		{
			"$unwind" : {
				"path" : "$lineitems"
			},
			"nReturned" : NumberLong(2856730),
			"executionTimeMillisEstimate" : NumberLong(250486)
		},
		{
			"$group" : {
				"_id" : {
					"$const" : null
				},
				"revenue" : {
					"$sum" : {
						"$multiply" : [
							"$lineitems.l_extendedprice",
							"$lineitems.l_discount"
						]
					}
				}
			},
			"nReturned" : NumberLong(1),
			"executionTimeMillisEstimate" : NumberLong(252047)
		}
	],
	"serverInfo" : {
		"host" : "dblab.cecsresearch.org",
		"port" : 27017,
		"version" : "4.4.12",
		"gitVersion" : "51475a8c4d9856eb1461137e7539a0a763cc85dc"
	},
	"ok" : 1
}


{
	"stages" : [
		{
			"$cursor" : {
				"queryPlanner" : {
					"plannerVersion" : 1,
					"namespace" : "tpch_1.scale1",
					"indexFilterSet" : false,
					"parsedQuery" : {
						
					},
					"queryHash" : "7D406A01",
					"planCacheKey" : "7D406A01",
					"winningPlan" : {
						"stage" : "PROJECTION_SIMPLE",
						"transformBy" : {
							"c_orders" : 1,
							"_id" : 0
						},
						"inputStage" : {
							"stage" : "COLLSCAN",
							"direction" : "forward"
						}
					},
					"rejectedPlans" : [ ]
				},
				"executionStats" : {
					"executionSuccess" : true,
					"nReturned" : 3750000,
					"executionTimeMillis" : 253546,
					"totalKeysExamined" : 0,
					"totalDocsExamined" : 3750000,
					"executionStages" : {
						"stage" : "PROJECTION_SIMPLE",
						"nReturned" : 3750000,
						"executionTimeMillisEstimate" : 65729,
						"works" : 3750002,
						"advanced" : 3750000,
						"needTime" : 1,
						"needYield" : 0,
						"saveState" : 29921,
						"restoreState" : 29921,
						"isEOF" : 1,
						"transformBy" : {
							"c_orders" : 1,
							"_id" : 0
						},
						"inputStage" : {
							"stage" : "COLLSCAN",
							"nReturned" : 3750000,
							"executionTimeMillisEstimate" : 61191,
							"works" : 3750002,
							"advanced" : 3750000,
							"needTime" : 1,
							"needYield" : 0,
							"saveState" : 29921,
							"restoreState" : 29921,
							"isEOF" : 1,
							"direction" : "forward",
							"docsExamined" : 3750000
						}
					},
					"allPlansExecution" : [ ]
				}
			},
			"nReturned" : NumberLong(3750000),
			"executionTimeMillisEstimate" : NumberLong(130479)
		},
		{
			"$unwind" : {
				"path" : "$c_orders"
			},
			"nReturned" : NumberLong(37499999),
			"executionTimeMillisEstimate" : NumberLong(151045)
		},
		{
			"$project" : {
				"_id" : "$c_orders.o_orderkey",
				"lineitems" : {
					"$filter" : {
						"input" : "$c_orders.o_lineitems",
						"as" : "l",
						"cond" : {
							"$and" : [
								{
									"$gte" : [
										"$$l.l_shipdate",
										{
											"$const" : ISODate("1992-04-30T00:00:00Z")
										}
									]
								},
								{
									"$lt" : [
										"$$l.l_shipdate",
										{
											"$const" : ISODate("1993-04-30T00:00:00Z")
										}
									]
								},
								{
									"$gte" : [
										"$$l.l_discount",
										{
											"$const" : 0.07
										}
									]
								},
								{
									"$lte" : [
										"$$l.l_discount",
										{
											"$const" : 0.09
										}
									]
								},
								{
									"$lt" : [
										"$$l.l_quantity",
										{
											"$const" : 24
										}
									]
								}
							]
						}
					}
				}
			},
			"nReturned" : NumberLong(37499999),
			"executionTimeMillisEstimate" : NumberLong(246732)
		},
		{
			"$unwind" : {
				"path" : "$lineitems"
			},
			"nReturned" : NumberLong(2856730),
			"executionTimeMillisEstimate" : NumberLong(251536)
		},
		{
			"$group" : {
				"_id" : {
					"$const" : null
				},
				"revenue" : {
					"$sum" : {
						"$multiply" : [
							"$lineitems.l_extendedprice",
							"$lineitems.l_discount"
						]
					}
				}
			},
			"nReturned" : NumberLong(1),
			"executionTimeMillisEstimate" : NumberLong(253542)
		}
	],
	"serverInfo" : {
		"host" : "dblab.cecsresearch.org",
		"port" : 27017,
		"version" : "4.4.12",
		"gitVersion" : "51475a8c4d9856eb1461137e7539a0a763cc85dc"
	},
	"ok" : 1
}


{
	"stages" : [
		{
			"$cursor" : {
				"queryPlanner" : {
					"plannerVersion" : 1,
					"namespace" : "tpch_1.scale1",
					"indexFilterSet" : false,
					"parsedQuery" : {
						
					},
					"queryHash" : "7D406A01",
					"planCacheKey" : "7D406A01",
					"winningPlan" : {
						"stage" : "PROJECTION_SIMPLE",
						"transformBy" : {
							"c_orders" : 1,
							"_id" : 0
						},
						"inputStage" : {
							"stage" : "COLLSCAN",
							"direction" : "forward"
						}
					},
					"rejectedPlans" : [ ]
				},
				"executionStats" : {
					"executionSuccess" : true,
					"nReturned" : 3750000,
					"executionTimeMillis" : 251771,
					"totalKeysExamined" : 0,
					"totalDocsExamined" : 3750000,
					"executionStages" : {
						"stage" : "PROJECTION_SIMPLE",
						"nReturned" : 3750000,
						"executionTimeMillisEstimate" : 65143,
						"works" : 3750002,
						"advanced" : 3750000,
						"needTime" : 1,
						"needYield" : 0,
						"saveState" : 29892,
						"restoreState" : 29892,
						"isEOF" : 1,
						"transformBy" : {
							"c_orders" : 1,
							"_id" : 0
						},
						"inputStage" : {
							"stage" : "COLLSCAN",
							"nReturned" : 3750000,
							"executionTimeMillisEstimate" : 60620,
							"works" : 3750002,
							"advanced" : 3750000,
							"needTime" : 1,
							"needYield" : 0,
							"saveState" : 29892,
							"restoreState" : 29892,
							"isEOF" : 1,
							"direction" : "forward",
							"docsExamined" : 3750000
						}
					},
					"allPlansExecution" : [ ]
				}
			},
			"nReturned" : NumberLong(3750000),
			"executionTimeMillisEstimate" : NumberLong(129868)
		},
		{
			"$unwind" : {
				"path" : "$c_orders"
			},
			"nReturned" : NumberLong(37499999),
			"executionTimeMillisEstimate" : NumberLong(149835)
		},
		{
			"$project" : {
				"_id" : "$c_orders.o_orderkey",
				"lineitems" : {
					"$filter" : {
						"input" : "$c_orders.o_lineitems",
						"as" : "l",
						"cond" : {
							"$and" : [
								{
									"$gte" : [
										"$$l.l_shipdate",
										{
											"$const" : ISODate("1992-04-30T00:00:00Z")
										}
									]
								},
								{
									"$lt" : [
										"$$l.l_shipdate",
										{
											"$const" : ISODate("1993-04-30T00:00:00Z")
										}
									]
								},
								{
									"$gte" : [
										"$$l.l_discount",
										{
											"$const" : 0.07
										}
									]
								},
								{
									"$lte" : [
										"$$l.l_discount",
										{
											"$const" : 0.09
										}
									]
								},
								{
									"$lt" : [
										"$$l.l_quantity",
										{
											"$const" : 24
										}
									]
								}
							]
						}
					}
				}
			},
			"nReturned" : NumberLong(37499999),
			"executionTimeMillisEstimate" : NumberLong(245147)
		},
		{
			"$unwind" : {
				"path" : "$lineitems"
			},
			"nReturned" : NumberLong(2856730),
			"executionTimeMillisEstimate" : NumberLong(249928)
		},
		{
			"$group" : {
				"_id" : {
					"$const" : null
				},
				"revenue" : {
					"$sum" : {
						"$multiply" : [
							"$lineitems.l_extendedprice",
							"$lineitems.l_discount"
						]
					}
				}
			},
			"nReturned" : NumberLong(1),
			"executionTimeMillisEstimate" : NumberLong(251765)
		}
	],
	"serverInfo" : {
		"host" : "dblab.cecsresearch.org",
		"port" : 27017,
		"version" : "4.4.12",
		"gitVersion" : "51475a8c4d9856eb1461137e7539a0a763cc85dc"
	},
	"ok" : 1
}


{
	"stages" : [
		{
			"$cursor" : {
				"queryPlanner" : {
					"plannerVersion" : 1,
					"namespace" : "tpch_1.scale1",
					"indexFilterSet" : false,
					"parsedQuery" : {
						
					},
					"queryHash" : "7D406A01",
					"planCacheKey" : "7D406A01",
					"winningPlan" : {
						"stage" : "PROJECTION_SIMPLE",
						"transformBy" : {
							"c_orders" : 1,
							"_id" : 0
						},
						"inputStage" : {
							"stage" : "COLLSCAN",
							"direction" : "forward"
						}
					},
					"rejectedPlans" : [ ]
				},
				"executionStats" : {
					"executionSuccess" : true,
					"nReturned" : 3750000,
					"executionTimeMillis" : 251956,
					"totalKeysExamined" : 0,
					"totalDocsExamined" : 3750000,
					"executionStages" : {
						"stage" : "PROJECTION_SIMPLE",
						"nReturned" : 3750000,
						"executionTimeMillisEstimate" : 64977,
						"works" : 3750002,
						"advanced" : 3750000,
						"needTime" : 1,
						"needYield" : 0,
						"saveState" : 29905,
						"restoreState" : 29905,
						"isEOF" : 1,
						"transformBy" : {
							"c_orders" : 1,
							"_id" : 0
						},
						"inputStage" : {
							"stage" : "COLLSCAN",
							"nReturned" : 3750000,
							"executionTimeMillisEstimate" : 60101,
							"works" : 3750002,
							"advanced" : 3750000,
							"needTime" : 1,
							"needYield" : 0,
							"saveState" : 29905,
							"restoreState" : 29905,
							"isEOF" : 1,
							"direction" : "forward",
							"docsExamined" : 3750000
						}
					},
					"allPlansExecution" : [ ]
				}
			},
			"nReturned" : NumberLong(3750000),
			"executionTimeMillisEstimate" : NumberLong(129600)
		},
		{
			"$unwind" : {
				"path" : "$c_orders"
			},
			"nReturned" : NumberLong(37499999),
			"executionTimeMillisEstimate" : NumberLong(150044)
		},
		{
			"$project" : {
				"_id" : "$c_orders.o_orderkey",
				"lineitems" : {
					"$filter" : {
						"input" : "$c_orders.o_lineitems",
						"as" : "l",
						"cond" : {
							"$and" : [
								{
									"$gte" : [
										"$$l.l_shipdate",
										{
											"$const" : ISODate("1992-04-30T00:00:00Z")
										}
									]
								},
								{
									"$lt" : [
										"$$l.l_shipdate",
										{
											"$const" : ISODate("1993-04-30T00:00:00Z")
										}
									]
								},
								{
									"$gte" : [
										"$$l.l_discount",
										{
											"$const" : 0.07
										}
									]
								},
								{
									"$lte" : [
										"$$l.l_discount",
										{
											"$const" : 0.09
										}
									]
								},
								{
									"$lt" : [
										"$$l.l_quantity",
										{
											"$const" : 24
										}
									]
								}
							]
						}
					}
				}
			},
			"nReturned" : NumberLong(37499999),
			"executionTimeMillisEstimate" : NumberLong(246027)
		},
		{
			"$unwind" : {
				"path" : "$lineitems"
			},
			"nReturned" : NumberLong(2856730),
			"executionTimeMillisEstimate" : NumberLong(250436)
		},
		{
			"$group" : {
				"_id" : {
					"$const" : null
				},
				"revenue" : {
					"$sum" : {
						"$multiply" : [
							"$lineitems.l_extendedprice",
							"$lineitems.l_discount"
						]
					}
				}
			},
			"nReturned" : NumberLong(1),
			"executionTimeMillisEstimate" : NumberLong(251951)
		}
	],
	"serverInfo" : {
		"host" : "dblab.cecsresearch.org",
		"port" : 27017,
		"version" : "4.4.12",
		"gitVersion" : "51475a8c4d9856eb1461137e7539a0a763cc85dc"
	},
	"ok" : 1
}


