{
	"stages" : [
		{
			"$cursor" : {
				"queryPlanner" : {
					"plannerVersion" : 1,
					"namespace" : "tpch_1.part",
					"indexFilterSet" : false,
					"parsedQuery" : {
						"p_name" : {
							"$regex" : ".*yellow.*"
						}
					},
					"queryHash" : "0BF39C2D",
					"planCacheKey" : "0BF39C2D",
					"winningPlan" : {
						"stage" : "PROJECTION_SIMPLE",
						"transformBy" : {
							"_id" : 1,
							"lineitem" : 1,
							"p_suppliers" : 1
						},
						"inputStage" : {
							"stage" : "COLLSCAN",
							"filter" : {
								"p_name" : {
									"$regex" : ".*yellow.*"
								}
							},
							"direction" : "forward"
						}
					},
					"rejectedPlans" : [ ]
				},
				"executionStats" : {
					"executionSuccess" : true,
					"nReturned" : 542991,
					"executionTimeMillis" : 84394516,
					"totalKeysExamined" : 0,
					"totalDocsExamined" : 10000000,
					"executionStages" : {
						"stage" : "PROJECTION_SIMPLE",
						"nReturned" : 542991,
						"executionTimeMillisEstimate" : 19507,
						"works" : 10000002,
						"advanced" : 542991,
						"needTime" : 9457010,
						"needYield" : 0,
						"saveState" : 10433,
						"restoreState" : 10433,
						"isEOF" : 1,
						"transformBy" : {
							"_id" : 1,
							"lineitem" : 1,
							"p_suppliers" : 1
						},
						"inputStage" : {
							"stage" : "COLLSCAN",
							"filter" : {
								"p_name" : {
									"$regex" : ".*yellow.*"
								}
							},
							"nReturned" : 542991,
							"executionTimeMillisEstimate" : 19267,
							"works" : 10000002,
							"advanced" : 542991,
							"needTime" : 9457010,
							"needYield" : 0,
							"saveState" : 10433,
							"restoreState" : 10433,
							"isEOF" : 1,
							"direction" : "forward",
							"docsExamined" : 10000000
						}
					},
					"allPlansExecution" : [ ]
				}
			},
			"nReturned" : NumberLong(542991),
			"executionTimeMillisEstimate" : NumberLong(46172)
		},
		{
			"$lookup" : {
				"from" : "lineitem",
				"as" : "lineitem",
				"localField" : "_id",
				"foreignField" : "l_partkey"
			},
			"nReturned" : NumberLong(542991),
			"executionTimeMillisEstimate" : NumberLong(61935156)
		},
		{
			"$unwind" : {
				"path" : "$p_suppliers"
			},
			"nReturned" : NumberLong(2171964),
			"executionTimeMillisEstimate" : NumberLong(61936883)
		},
		{
			"$project" : {
				"_id" : true,
				"lineitem" : true,
				"p_partkey" : "$_id",
				"ps_supplycost" : "$p_suppliers.ps_supplycost",
				"ps_suppkey" : "$p_suppliers.ps_suppkey"
			},
			"nReturned" : NumberLong(2171964),
			"executionTimeMillisEstimate" : NumberLong(61938996)
		},
		{
			"$lookup" : {
				"from" : "supplier",
				"as" : "supplier",
				"localField" : "ps_suppkey",
				"foreignField" : "_id",
				"unwinding" : {
					"preserveNullAndEmptyArrays" : false
				}
			},
			"nReturned" : NumberLong(2171964),
			"executionTimeMillisEstimate" : NumberLong(64433383)
		},
		{
			"$match" : {
				"$expr" : {
					"$in" : [
						"$p_partkey",
						"$supplier.s_parts"
					]
				}
			},
			"nReturned" : NumberLong(2171964),
			"executionTimeMillisEstimate" : NumberLong(64433929)
		},
		{
			"$project" : {
				"_id" : true,
				"p_partkey" : true,
				"ps_suppkey" : true,
				"ps_supplycost" : true,
				"n_nation" : "$supplier.s_nation.n_name",
				"lineitem" : {
					"$filter" : {
						"input" : "$lineitem",
						"as" : "l",
						"cond" : {
							"$eq" : [
								"$$l.l_suppkey",
								"$ps_suppkey"
							]
						}
					}
				}
			},
			"nReturned" : NumberLong(2171964),
			"executionTimeMillisEstimate" : NumberLong(64434598)
		},
		{
			"$unwind" : {
				"path" : "$lineitem"
			},
			"nReturned" : NumberLong(16287671),
			"executionTimeMillisEstimate" : NumberLong(64435436)
		},
		{
			"$lookup" : {
				"from" : "orders",
				"as" : "order",
				"localField" : "lineitem._id.l_orderkey",
				"foreignField" : "_id",
				"unwinding" : {
					"preserveNullAndEmptyArrays" : false
				}
			},
			"nReturned" : NumberLong(16287671),
			"executionTimeMillisEstimate" : NumberLong(84376649)
		},
		{
			"$project" : {
				"_id" : true,
				"nation" : "$n_nation",
				"o_year" : {
					"$year" : {
						"date" : "$order.o_orderdate"
					}
				},
				"amount" : {
					"$subtract" : [
						{
							"$multiply" : [
								"$lineitem.l_extendedprice",
								{
									"$subtract" : [
										{
											"$const" : 1
										},
										"$lineitem.l_discount"
									]
								}
							]
						},
						{
							"$multiply" : [
								"$ps_supplycost",
								"$lineitem.l_quantity"
							]
						}
					]
				}
			},
			"nReturned" : NumberLong(16287671),
			"executionTimeMillisEstimate" : NumberLong(84389686)
		},
		{
			"$group" : {
				"_id" : {
					"nation" : "$nation",
					"o_year" : "$o_year"
				},
				"sum_profit" : {
					"$sum" : "$amount"
				}
			},
			"nReturned" : NumberLong(175),
			"executionTimeMillisEstimate" : NumberLong(84394485)
		},
		{
			"$sort" : {
				"sortKey" : {
					"_id.nation" : 1,
					"_id.o_year" : -1
				}
			},
			"nReturned" : NumberLong(175),
			"executionTimeMillisEstimate" : NumberLong(84394515)
		}
	],
	"serverInfo" : {
		"host" : "dblab.cecsresearch.org",
		"port" : 27017,
		"version" : "4.4.12",
		"gitVersion" : "51475a8c4d9856eb1461137e7539a0a763cc85dc"
	},
	"ok" : 1
}


{
	"stages" : [
		{
			"$cursor" : {
				"queryPlanner" : {
					"plannerVersion" : 1,
					"namespace" : "tpch_1.part",
					"indexFilterSet" : false,
					"parsedQuery" : {
						"p_name" : {
							"$regex" : ".*yellow.*"
						}
					},
					"queryHash" : "0BF39C2D",
					"planCacheKey" : "0BF39C2D",
					"winningPlan" : {
						"stage" : "PROJECTION_SIMPLE",
						"transformBy" : {
							"_id" : 1,
							"lineitem" : 1,
							"p_suppliers" : 1
						},
						"inputStage" : {
							"stage" : "COLLSCAN",
							"filter" : {
								"p_name" : {
									"$regex" : ".*yellow.*"
								}
							},
							"direction" : "forward"
						}
					},
					"rejectedPlans" : [ ]
				},
				"executionStats" : {
					"executionSuccess" : true,
					"nReturned" : 542991,
					"executionTimeMillis" : 79532603,
					"totalKeysExamined" : 0,
					"totalDocsExamined" : 10000000,
					"executionStages" : {
						"stage" : "PROJECTION_SIMPLE",
						"nReturned" : 542991,
						"executionTimeMillisEstimate" : 17104,
						"works" : 10000002,
						"advanced" : 542991,
						"needTime" : 9457010,
						"needYield" : 0,
						"saveState" : 10396,
						"restoreState" : 10396,
						"isEOF" : 1,
						"transformBy" : {
							"_id" : 1,
							"lineitem" : 1,
							"p_suppliers" : 1
						},
						"inputStage" : {
							"stage" : "COLLSCAN",
							"filter" : {
								"p_name" : {
									"$regex" : ".*yellow.*"
								}
							},
							"nReturned" : 542991,
							"executionTimeMillisEstimate" : 16902,
							"works" : 10000002,
							"advanced" : 542991,
							"needTime" : 9457010,
							"needYield" : 0,
							"saveState" : 10396,
							"restoreState" : 10396,
							"isEOF" : 1,
							"direction" : "forward",
							"docsExamined" : 10000000
						}
					},
					"allPlansExecution" : [ ]
				}
			},
			"nReturned" : NumberLong(542991),
			"executionTimeMillisEstimate" : NumberLong(42411)
		},
		{
			"$lookup" : {
				"from" : "lineitem",
				"as" : "lineitem",
				"localField" : "_id",
				"foreignField" : "l_partkey"
			},
			"nReturned" : NumberLong(542991),
			"executionTimeMillisEstimate" : NumberLong(59379950)
		},
		{
			"$unwind" : {
				"path" : "$p_suppliers"
			},
			"nReturned" : NumberLong(2171964),
			"executionTimeMillisEstimate" : NumberLong(59381655)
		},
		{
			"$project" : {
				"_id" : true,
				"lineitem" : true,
				"p_partkey" : "$_id",
				"ps_supplycost" : "$p_suppliers.ps_supplycost",
				"ps_suppkey" : "$p_suppliers.ps_suppkey"
			},
			"nReturned" : NumberLong(2171964),
			"executionTimeMillisEstimate" : NumberLong(59383302)
		},
		{
			"$lookup" : {
				"from" : "supplier",
				"as" : "supplier",
				"localField" : "ps_suppkey",
				"foreignField" : "_id",
				"unwinding" : {
					"preserveNullAndEmptyArrays" : false
				}
			},
			"nReturned" : NumberLong(2171964),
			"executionTimeMillisEstimate" : NumberLong(61814534)
		},
		{
			"$match" : {
				"$expr" : {
					"$in" : [
						"$p_partkey",
						"$supplier.s_parts"
					]
				}
			},
			"nReturned" : NumberLong(2171964),
			"executionTimeMillisEstimate" : NumberLong(61815070)
		},
		{
			"$project" : {
				"_id" : true,
				"p_partkey" : true,
				"ps_supplycost" : true,
				"ps_suppkey" : true,
				"n_nation" : "$supplier.s_nation.n_name",
				"lineitem" : {
					"$filter" : {
						"input" : "$lineitem",
						"as" : "l",
						"cond" : {
							"$eq" : [
								"$$l.l_suppkey",
								"$ps_suppkey"
							]
						}
					}
				}
			},
			"nReturned" : NumberLong(2171964),
			"executionTimeMillisEstimate" : NumberLong(61815790)
		},
		{
			"$unwind" : {
				"path" : "$lineitem"
			},
			"nReturned" : NumberLong(16287671),
			"executionTimeMillisEstimate" : NumberLong(61816653)
		},
		{
			"$lookup" : {
				"from" : "orders",
				"as" : "order",
				"localField" : "lineitem._id.l_orderkey",
				"foreignField" : "_id",
				"unwinding" : {
					"preserveNullAndEmptyArrays" : false
				}
			},
			"nReturned" : NumberLong(16287671),
			"executionTimeMillisEstimate" : NumberLong(79516057)
		},
		{
			"$project" : {
				"_id" : true,
				"nation" : "$n_nation",
				"o_year" : {
					"$year" : {
						"date" : "$order.o_orderdate"
					}
				},
				"amount" : {
					"$subtract" : [
						{
							"$multiply" : [
								"$lineitem.l_extendedprice",
								{
									"$subtract" : [
										{
											"$const" : 1
										},
										"$lineitem.l_discount"
									]
								}
							]
						},
						{
							"$multiply" : [
								"$ps_supplycost",
								"$lineitem.l_quantity"
							]
						}
					]
				}
			},
			"nReturned" : NumberLong(16287671),
			"executionTimeMillisEstimate" : NumberLong(79528279)
		},
		{
			"$group" : {
				"_id" : {
					"nation" : "$nation",
					"o_year" : "$o_year"
				},
				"sum_profit" : {
					"$sum" : "$amount"
				}
			},
			"nReturned" : NumberLong(175),
			"executionTimeMillisEstimate" : NumberLong(79532568)
		},
		{
			"$sort" : {
				"sortKey" : {
					"_id.nation" : 1,
					"_id.o_year" : -1
				}
			},
			"nReturned" : NumberLong(175),
			"executionTimeMillisEstimate" : NumberLong(79532588)
		}
	],
	"serverInfo" : {
		"host" : "dblab.cecsresearch.org",
		"port" : 27017,
		"version" : "4.4.12",
		"gitVersion" : "51475a8c4d9856eb1461137e7539a0a763cc85dc"
	},
	"ok" : 1
}


