{
	"stages" : [
		{
			"$cursor" : {
				"queryPlanner" : {
					"plannerVersion" : 1,
					"namespace" : "tpch_1.scale1",
					"indexFilterSet" : false,
					"parsedQuery" : {
						
					},
					"queryHash" : "3C5EE11B",
					"planCacheKey" : "3C5EE11B",
					"winningPlan" : {
						"stage" : "PROJECTION_SIMPLE",
						"transformBy" : {
							"_id" : 1,
							"c_name" : 1,
							"c_orders" : 1,
							"sum_qty" : 1
						},
						"inputStage" : {
							"stage" : "COLLSCAN",
							"direction" : "forward"
						}
					},
					"rejectedPlans" : [ ]
				},
				"executionStats" : {
					"executionSuccess" : true,
					"nReturned" : 1500000,
					"executionTimeMillis" : 92547,
					"totalKeysExamined" : 0,
					"totalDocsExamined" : 1500000,
					"executionStages" : {
						"stage" : "PROJECTION_SIMPLE",
						"nReturned" : 1500000,
						"executionTimeMillisEstimate" : 25393,
						"works" : 1500002,
						"advanced" : 1500000,
						"needTime" : 1,
						"needYield" : 0,
						"saveState" : 11792,
						"restoreState" : 11792,
						"isEOF" : 1,
						"transformBy" : {
							"_id" : 1,
							"c_name" : 1,
							"c_orders" : 1,
							"sum_qty" : 1
						},
						"inputStage" : {
							"stage" : "COLLSCAN",
							"nReturned" : 1500000,
							"executionTimeMillisEstimate" : 23049,
							"works" : 1500002,
							"advanced" : 1500000,
							"needTime" : 1,
							"needYield" : 0,
							"saveState" : 11792,
							"restoreState" : 11792,
							"isEOF" : 1,
							"direction" : "forward",
							"docsExamined" : 1500000
						}
					},
					"allPlansExecution" : [ ]
				}
			},
			"nReturned" : NumberLong(1500000),
			"executionTimeMillisEstimate" : NumberLong(51551)
		},
		{
			"$unwind" : {
				"path" : "$c_orders"
			},
			"nReturned" : NumberLong(14999999),
			"executionTimeMillisEstimate" : NumberLong(59409)
		},
		{
			"$addFields" : {
				"sum_qty" : {
					"$sum" : [
						{
							"$map" : {
								"input" : "$c_orders.o_lineitems",
								"as" : "l",
								"in" : "$$l.l_quantity"
							}
						}
					]
				}
			},
			"nReturned" : NumberLong(14999999),
			"executionTimeMillisEstimate" : NumberLong(86805)
		},
		{
			"$match" : {
				"sum_qty" : {
					"$gt" : 313
				}
			},
			"nReturned" : NumberLong(99),
			"executionTimeMillisEstimate" : NumberLong(92540)
		},
		{
			"$project" : {
				"_id" : true,
				"sum_qty" : true,
				"c_name" : true,
				"o_orderkey" : "$c_orders.o_orderkey",
				"o_orderdate" : "$c_orders.o_orderdate",
				"o_totalprice" : "$c_orders.o_totalprice"
			},
			"nReturned" : NumberLong(99),
			"executionTimeMillisEstimate" : NumberLong(92540)
		},
		{
			"$sort" : {
				"sortKey" : {
					"o_totalprice" : -1,
					"o_orderdate" : 1
				},
				"limit" : NumberLong(100)
			},
			"nReturned" : NumberLong(99),
			"executionTimeMillisEstimate" : NumberLong(92540)
		}
	],
	"serverInfo" : {
		"host" : "dblab.cecsresearch.org",
		"port" : 27017,
		"version" : "4.4.12",
		"gitVersion" : "51475a8c4d9856eb1461137e7539a0a763cc85dc"
	},
	"ok" : 1
}


{
	"stages" : [
		{
			"$cursor" : {
				"queryPlanner" : {
					"plannerVersion" : 1,
					"namespace" : "tpch_1.scale1",
					"indexFilterSet" : false,
					"parsedQuery" : {
						
					},
					"queryHash" : "3C5EE11B",
					"planCacheKey" : "3C5EE11B",
					"winningPlan" : {
						"stage" : "PROJECTION_SIMPLE",
						"transformBy" : {
							"_id" : 1,
							"c_name" : 1,
							"c_orders" : 1,
							"sum_qty" : 1
						},
						"inputStage" : {
							"stage" : "COLLSCAN",
							"direction" : "forward"
						}
					},
					"rejectedPlans" : [ ]
				},
				"executionStats" : {
					"executionSuccess" : true,
					"nReturned" : 1500000,
					"executionTimeMillis" : 95497,
					"totalKeysExamined" : 0,
					"totalDocsExamined" : 1500000,
					"executionStages" : {
						"stage" : "PROJECTION_SIMPLE",
						"nReturned" : 1500000,
						"executionTimeMillisEstimate" : 25769,
						"works" : 1500002,
						"advanced" : 1500000,
						"needTime" : 1,
						"needYield" : 0,
						"saveState" : 11825,
						"restoreState" : 11825,
						"isEOF" : 1,
						"transformBy" : {
							"_id" : 1,
							"c_name" : 1,
							"c_orders" : 1,
							"sum_qty" : 1
						},
						"inputStage" : {
							"stage" : "COLLSCAN",
							"nReturned" : 1500000,
							"executionTimeMillisEstimate" : 23156,
							"works" : 1500002,
							"advanced" : 1500000,
							"needTime" : 1,
							"needYield" : 0,
							"saveState" : 11825,
							"restoreState" : 11825,
							"isEOF" : 1,
							"direction" : "forward",
							"docsExamined" : 1500000
						}
					},
					"allPlansExecution" : [ ]
				}
			},
			"nReturned" : NumberLong(1500000),
			"executionTimeMillisEstimate" : NumberLong(52146)
		},
		{
			"$unwind" : {
				"path" : "$c_orders"
			},
			"nReturned" : NumberLong(14999999),
			"executionTimeMillisEstimate" : NumberLong(60167)
		},
		{
			"$addFields" : {
				"sum_qty" : {
					"$sum" : [
						{
							"$map" : {
								"input" : "$c_orders.o_lineitems",
								"as" : "l",
								"in" : "$$l.l_quantity"
							}
						}
					]
				}
			},
			"nReturned" : NumberLong(14999999),
			"executionTimeMillisEstimate" : NumberLong(88260)
		},
		{
			"$match" : {
				"sum_qty" : {
					"$gt" : 313
				}
			},
			"nReturned" : NumberLong(99),
			"executionTimeMillisEstimate" : NumberLong(95496)
		},
		{
			"$project" : {
				"_id" : true,
				"sum_qty" : true,
				"c_name" : true,
				"o_orderkey" : "$c_orders.o_orderkey",
				"o_orderdate" : "$c_orders.o_orderdate",
				"o_totalprice" : "$c_orders.o_totalprice"
			},
			"nReturned" : NumberLong(99),
			"executionTimeMillisEstimate" : NumberLong(95496)
		},
		{
			"$sort" : {
				"sortKey" : {
					"o_totalprice" : -1,
					"o_orderdate" : 1
				},
				"limit" : NumberLong(100)
			},
			"nReturned" : NumberLong(99),
			"executionTimeMillisEstimate" : NumberLong(95496)
		}
	],
	"serverInfo" : {
		"host" : "dblab.cecsresearch.org",
		"port" : 27017,
		"version" : "4.4.12",
		"gitVersion" : "51475a8c4d9856eb1461137e7539a0a763cc85dc"
	},
	"ok" : 1
}


{
	"stages" : [
		{
			"$cursor" : {
				"queryPlanner" : {
					"plannerVersion" : 1,
					"namespace" : "tpch_1.scale1",
					"indexFilterSet" : false,
					"parsedQuery" : {
						
					},
					"queryHash" : "3C5EE11B",
					"planCacheKey" : "3C5EE11B",
					"winningPlan" : {
						"stage" : "PROJECTION_SIMPLE",
						"transformBy" : {
							"_id" : 1,
							"c_name" : 1,
							"c_orders" : 1,
							"sum_qty" : 1
						},
						"inputStage" : {
							"stage" : "COLLSCAN",
							"direction" : "forward"
						}
					},
					"rejectedPlans" : [ ]
				},
				"executionStats" : {
					"executionSuccess" : true,
					"nReturned" : 1500000,
					"executionTimeMillis" : 93021,
					"totalKeysExamined" : 0,
					"totalDocsExamined" : 1500000,
					"executionStages" : {
						"stage" : "PROJECTION_SIMPLE",
						"nReturned" : 1500000,
						"executionTimeMillisEstimate" : 25749,
						"works" : 1500002,
						"advanced" : 1500000,
						"needTime" : 1,
						"needYield" : 0,
						"saveState" : 11798,
						"restoreState" : 11798,
						"isEOF" : 1,
						"transformBy" : {
							"_id" : 1,
							"c_name" : 1,
							"c_orders" : 1,
							"sum_qty" : 1
						},
						"inputStage" : {
							"stage" : "COLLSCAN",
							"nReturned" : 1500000,
							"executionTimeMillisEstimate" : 23169,
							"works" : 1500002,
							"advanced" : 1500000,
							"needTime" : 1,
							"needYield" : 0,
							"saveState" : 11798,
							"restoreState" : 11798,
							"isEOF" : 1,
							"direction" : "forward",
							"docsExamined" : 1500000
						}
					},
					"allPlansExecution" : [ ]
				}
			},
			"nReturned" : NumberLong(1500000),
			"executionTimeMillisEstimate" : NumberLong(51758)
		},
		{
			"$unwind" : {
				"path" : "$c_orders"
			},
			"nReturned" : NumberLong(14999999),
			"executionTimeMillisEstimate" : NumberLong(59908)
		},
		{
			"$addFields" : {
				"sum_qty" : {
					"$sum" : [
						{
							"$map" : {
								"input" : "$c_orders.o_lineitems",
								"as" : "l",
								"in" : "$$l.l_quantity"
							}
						}
					]
				}
			},
			"nReturned" : NumberLong(14999999),
			"executionTimeMillisEstimate" : NumberLong(86815)
		},
		{
			"$match" : {
				"sum_qty" : {
					"$gt" : 313
				}
			},
			"nReturned" : NumberLong(99),
			"executionTimeMillisEstimate" : NumberLong(93013)
		},
		{
			"$project" : {
				"_id" : true,
				"sum_qty" : true,
				"c_name" : true,
				"o_orderkey" : "$c_orders.o_orderkey",
				"o_orderdate" : "$c_orders.o_orderdate",
				"o_totalprice" : "$c_orders.o_totalprice"
			},
			"nReturned" : NumberLong(99),
			"executionTimeMillisEstimate" : NumberLong(93013)
		},
		{
			"$sort" : {
				"sortKey" : {
					"o_totalprice" : -1,
					"o_orderdate" : 1
				},
				"limit" : NumberLong(100)
			},
			"nReturned" : NumberLong(99),
			"executionTimeMillisEstimate" : NumberLong(93013)
		}
	],
	"serverInfo" : {
		"host" : "dblab.cecsresearch.org",
		"port" : 27017,
		"version" : "4.4.12",
		"gitVersion" : "51475a8c4d9856eb1461137e7539a0a763cc85dc"
	},
	"ok" : 1
}


{
	"stages" : [
		{
			"$cursor" : {
				"queryPlanner" : {
					"plannerVersion" : 1,
					"namespace" : "tpch_1.scale1",
					"indexFilterSet" : false,
					"parsedQuery" : {
						
					},
					"queryHash" : "3C5EE11B",
					"planCacheKey" : "3C5EE11B",
					"winningPlan" : {
						"stage" : "PROJECTION_SIMPLE",
						"transformBy" : {
							"_id" : 1,
							"c_name" : 1,
							"c_orders" : 1,
							"sum_qty" : 1
						},
						"inputStage" : {
							"stage" : "COLLSCAN",
							"direction" : "forward"
						}
					},
					"rejectedPlans" : [ ]
				},
				"executionStats" : {
					"executionSuccess" : true,
					"nReturned" : 1500000,
					"executionTimeMillis" : 93525,
					"totalKeysExamined" : 0,
					"totalDocsExamined" : 1500000,
					"executionStages" : {
						"stage" : "PROJECTION_SIMPLE",
						"nReturned" : 1500000,
						"executionTimeMillisEstimate" : 25678,
						"works" : 1500002,
						"advanced" : 1500000,
						"needTime" : 1,
						"needYield" : 0,
						"saveState" : 11775,
						"restoreState" : 11775,
						"isEOF" : 1,
						"transformBy" : {
							"_id" : 1,
							"c_name" : 1,
							"c_orders" : 1,
							"sum_qty" : 1
						},
						"inputStage" : {
							"stage" : "COLLSCAN",
							"nReturned" : 1500000,
							"executionTimeMillisEstimate" : 23450,
							"works" : 1500002,
							"advanced" : 1500000,
							"needTime" : 1,
							"needYield" : 0,
							"saveState" : 11775,
							"restoreState" : 11775,
							"isEOF" : 1,
							"direction" : "forward",
							"docsExamined" : 1500000
						}
					},
					"allPlansExecution" : [ ]
				}
			},
			"nReturned" : NumberLong(1500000),
			"executionTimeMillisEstimate" : NumberLong(51470)
		},
		{
			"$unwind" : {
				"path" : "$c_orders"
			},
			"nReturned" : NumberLong(14999999),
			"executionTimeMillisEstimate" : NumberLong(59461)
		},
		{
			"$addFields" : {
				"sum_qty" : {
					"$sum" : [
						{
							"$map" : {
								"input" : "$c_orders.o_lineitems",
								"as" : "l",
								"in" : "$$l.l_quantity"
							}
						}
					]
				}
			},
			"nReturned" : NumberLong(14999999),
			"executionTimeMillisEstimate" : NumberLong(87380)
		},
		{
			"$match" : {
				"sum_qty" : {
					"$gt" : 313
				}
			},
			"nReturned" : NumberLong(99),
			"executionTimeMillisEstimate" : NumberLong(93523)
		},
		{
			"$project" : {
				"_id" : true,
				"c_name" : true,
				"sum_qty" : true,
				"o_orderkey" : "$c_orders.o_orderkey",
				"o_orderdate" : "$c_orders.o_orderdate",
				"o_totalprice" : "$c_orders.o_totalprice"
			},
			"nReturned" : NumberLong(99),
			"executionTimeMillisEstimate" : NumberLong(93523)
		},
		{
			"$sort" : {
				"sortKey" : {
					"o_totalprice" : -1,
					"o_orderdate" : 1
				},
				"limit" : NumberLong(100)
			},
			"nReturned" : NumberLong(99),
			"executionTimeMillisEstimate" : NumberLong(93523)
		}
	],
	"serverInfo" : {
		"host" : "dblab.cecsresearch.org",
		"port" : 27017,
		"version" : "4.4.12",
		"gitVersion" : "51475a8c4d9856eb1461137e7539a0a763cc85dc"
	},
	"ok" : 1
}


{
	"stages" : [
		{
			"$cursor" : {
				"queryPlanner" : {
					"plannerVersion" : 1,
					"namespace" : "tpch_1.scale1",
					"indexFilterSet" : false,
					"parsedQuery" : {
						
					},
					"queryHash" : "3C5EE11B",
					"planCacheKey" : "3C5EE11B",
					"winningPlan" : {
						"stage" : "PROJECTION_SIMPLE",
						"transformBy" : {
							"_id" : 1,
							"c_name" : 1,
							"c_orders" : 1,
							"sum_qty" : 1
						},
						"inputStage" : {
							"stage" : "COLLSCAN",
							"direction" : "forward"
						}
					},
					"rejectedPlans" : [ ]
				},
				"executionStats" : {
					"executionSuccess" : true,
					"nReturned" : 1500000,
					"executionTimeMillis" : 94735,
					"totalKeysExamined" : 0,
					"totalDocsExamined" : 1500000,
					"executionStages" : {
						"stage" : "PROJECTION_SIMPLE",
						"nReturned" : 1500000,
						"executionTimeMillisEstimate" : 25772,
						"works" : 1500002,
						"advanced" : 1500000,
						"needTime" : 1,
						"needYield" : 0,
						"saveState" : 11809,
						"restoreState" : 11809,
						"isEOF" : 1,
						"transformBy" : {
							"_id" : 1,
							"c_name" : 1,
							"c_orders" : 1,
							"sum_qty" : 1
						},
						"inputStage" : {
							"stage" : "COLLSCAN",
							"nReturned" : 1500000,
							"executionTimeMillisEstimate" : 23357,
							"works" : 1500002,
							"advanced" : 1500000,
							"needTime" : 1,
							"needYield" : 0,
							"saveState" : 11809,
							"restoreState" : 11809,
							"isEOF" : 1,
							"direction" : "forward",
							"docsExamined" : 1500000
						}
					},
					"allPlansExecution" : [ ]
				}
			},
			"nReturned" : NumberLong(1500000),
			"executionTimeMillisEstimate" : NumberLong(51933)
		},
		{
			"$unwind" : {
				"path" : "$c_orders"
			},
			"nReturned" : NumberLong(14999999),
			"executionTimeMillisEstimate" : NumberLong(59926)
		},
		{
			"$addFields" : {
				"sum_qty" : {
					"$sum" : [
						{
							"$map" : {
								"input" : "$c_orders.o_lineitems",
								"as" : "l",
								"in" : "$$l.l_quantity"
							}
						}
					]
				}
			},
			"nReturned" : NumberLong(14999999),
			"executionTimeMillisEstimate" : NumberLong(87088)
		},
		{
			"$match" : {
				"sum_qty" : {
					"$gt" : 313
				}
			},
			"nReturned" : NumberLong(99),
			"executionTimeMillisEstimate" : NumberLong(94731)
		},
		{
			"$project" : {
				"_id" : true,
				"sum_qty" : true,
				"c_name" : true,
				"o_orderkey" : "$c_orders.o_orderkey",
				"o_orderdate" : "$c_orders.o_orderdate",
				"o_totalprice" : "$c_orders.o_totalprice"
			},
			"nReturned" : NumberLong(99),
			"executionTimeMillisEstimate" : NumberLong(94731)
		},
		{
			"$sort" : {
				"sortKey" : {
					"o_totalprice" : -1,
					"o_orderdate" : 1
				},
				"limit" : NumberLong(100)
			},
			"nReturned" : NumberLong(99),
			"executionTimeMillisEstimate" : NumberLong(94731)
		}
	],
	"serverInfo" : {
		"host" : "dblab.cecsresearch.org",
		"port" : 27017,
		"version" : "4.4.12",
		"gitVersion" : "51475a8c4d9856eb1461137e7539a0a763cc85dc"
	},
	"ok" : 1
}


