{
	"stages" : [
		{
			"$cursor" : {
				"queryPlanner" : {
					"plannerVersion" : 1,
					"namespace" : "tpch_1.customer",
					"indexFilterSet" : false,
					"parsedQuery" : {
						"c_acctbal" : {
							"$gt" : 0
						}
					},
					"queryHash" : "B4A855D2",
					"planCacheKey" : "B4A855D2",
					"winningPlan" : {
						"stage" : "PROJECTION_DEFAULT",
						"transformBy" : {
							"_id" : true,
							"c_acctbal" : true,
							"cntrycode" : {
								"$substrBytes" : [
									"$c_phone",
									{
										"$const" : 0
									},
									{
										"$const" : 2
									}
								]
							}
						},
						"inputStage" : {
							"stage" : "COLLSCAN",
							"filter" : {
								"c_acctbal" : {
									"$gt" : 0
								}
							},
							"direction" : "forward"
						}
					},
					"rejectedPlans" : [ ]
				},
				"executionStats" : {
					"executionSuccess" : true,
					"nReturned" : 1363614,
					"executionTimeMillis" : 124225,
					"totalKeysExamined" : 0,
					"totalDocsExamined" : 1500000,
					"executionStages" : {
						"stage" : "PROJECTION_DEFAULT",
						"nReturned" : 1363614,
						"executionTimeMillisEstimate" : 1122,
						"works" : 1500002,
						"advanced" : 1363614,
						"needTime" : 136387,
						"needYield" : 0,
						"saveState" : 1620,
						"restoreState" : 1620,
						"isEOF" : 1,
						"transformBy" : {
							"_id" : true,
							"c_acctbal" : true,
							"cntrycode" : {
								"$substrBytes" : [
									"$c_phone",
									{
										"$const" : 0
									},
									{
										"$const" : 2
									}
								]
							}
						},
						"inputStage" : {
							"stage" : "COLLSCAN",
							"filter" : {
								"c_acctbal" : {
									"$gt" : 0
								}
							},
							"nReturned" : 1363614,
							"executionTimeMillisEstimate" : 728,
							"works" : 1500002,
							"advanced" : 1363614,
							"needTime" : 136387,
							"needYield" : 0,
							"saveState" : 1620,
							"restoreState" : 1620,
							"isEOF" : 1,
							"direction" : "forward",
							"docsExamined" : 1500000
						}
					},
					"allPlansExecution" : [ ]
				}
			},
			"nReturned" : NumberLong(1363614),
			"executionTimeMillisEstimate" : NumberLong(4310)
		},
		{
			"$match" : {
				"cntrycode" : {
					"$in" : [
						"10",
						"15",
						"17",
						"21",
						"22",
						"25",
						"30"
					]
				}
			},
			"nReturned" : NumberLong(382022),
			"executionTimeMillisEstimate" : NumberLong(4355)
		},
		{
			"$lookup" : {
				"from" : "orders",
				"as" : "c_orders",
				"localField" : "_id",
				"foreignField" : "o_custkey"
			},
			"nReturned" : NumberLong(382022),
			"executionTimeMillisEstimate" : NumberLong(123224)
		},
		{
			"$facet" : {
				"sub_query" : [
					{
						"$teeConsumer" : {
							
						},
						"nReturned" : NumberLong(382022),
						"executionTimeMillisEstimate" : NumberLong(96261)
					},
					{
						"$group" : {
							"_id" : {
								"$const" : null
							},
							"c_acctbal_avg" : {
								"$avg" : "$c_acctbal"
							}
						},
						"nReturned" : NumberLong(1),
						"executionTimeMillisEstimate" : NumberLong(96337)
					}
				],
				"outer_query" : [
					{
						"$teeConsumer" : {
							
						},
						"nReturned" : NumberLong(382022),
						"executionTimeMillisEstimate" : NumberLong(27645)
					},
					{
						"$group" : {
							"_id" : "$cntrycode",
							"numcust" : {
								"$sum" : {
									"$cond" : [
										{
											"$eq" : [
												"$c_orders",
												{
													"$const" : [ ]
												}
											]
										},
										{
											"$const" : 1
										},
										{
											"$const" : 0
										}
									]
								}
							},
							"totacctbal" : {
								"$sum" : {
									"$cond" : [
										{
											"$eq" : [
												"$c_orders",
												{
													"$const" : [ ]
												}
											]
										},
										"$c_acctbal",
										{
											"$const" : 0
										}
									]
								}
							},
							"c_acctbals" : {
								"$push" : {
									"$cond" : [
										{
											"$eq" : [
												"$c_orders",
												{
													"$const" : [ ]
												}
											]
										},
										"$c_acctbal",
										"$$REMOVE"
									]
								}
							}
						},
						"nReturned" : NumberLong(7),
						"executionTimeMillisEstimate" : NumberLong(27865)
					}
				]
			},
			"nReturned" : NumberLong(1),
			"executionTimeMillisEstimate" : NumberLong(124202)
		},
		{
			"$unwind" : {
				"path" : "$outer_query"
			},
			"nReturned" : NumberLong(7),
			"executionTimeMillisEstimate" : NumberLong(124202)
		},
		{
			"$unwind" : {
				"path" : "$sub_query"
			},
			"nReturned" : NumberLong(7),
			"executionTimeMillisEstimate" : NumberLong(124202)
		},
		{
			"$project" : {
				"_id" : "$outer_query._id",
				"numcust" : "$outer_query.numcust",
				"totacctbal" : "$outer_query.totacctbal",
				"c_acctbals" : {
					"$filter" : {
						"input" : "$outer_query.c_acctbals",
						"as" : "c_acctbal",
						"cond" : {
							"$lte" : [
								"$$c_acctbal",
								"$sub_query.c_acctbal_avg"
							]
						}
					}
				}
			},
			"nReturned" : NumberLong(7),
			"executionTimeMillisEstimate" : NumberLong(124202)
		},
		{
			"$project" : {
				"_id" : true,
				"numcust" : {
					"$subtract" : [
						"$numcust",
						{
							"$size" : [
								"$c_acctbals"
							]
						}
					]
				},
				"totacctbal" : {
					"$subtract" : [
						"$totacctbal",
						{
							"$reduce" : {
								"input" : "$c_acctbals",
								"initialValue" : {
									"$const" : 0
								},
								"in" : {
									"$add" : [
										"$$value",
										"$$this"
									]
								}
							}
						}
					]
				}
			},
			"nReturned" : NumberLong(7),
			"executionTimeMillisEstimate" : NumberLong(124220)
		},
		{
			"$sort" : {
				"sortKey" : {
					"_id" : 1
				}
			},
			"nReturned" : NumberLong(7),
			"executionTimeMillisEstimate" : NumberLong(124220)
		}
	],
	"serverInfo" : {
		"host" : "dblab.cecsresearch.org",
		"port" : 27017,
		"version" : "4.4.12",
		"gitVersion" : "51475a8c4d9856eb1461137e7539a0a763cc85dc"
	},
	"ok" : 1
}


{
	"stages" : [
		{
			"$cursor" : {
				"queryPlanner" : {
					"plannerVersion" : 1,
					"namespace" : "tpch_1.customer",
					"indexFilterSet" : false,
					"parsedQuery" : {
						"c_acctbal" : {
							"$gt" : 0
						}
					},
					"queryHash" : "B4A855D2",
					"planCacheKey" : "B4A855D2",
					"winningPlan" : {
						"stage" : "PROJECTION_DEFAULT",
						"transformBy" : {
							"_id" : true,
							"c_acctbal" : true,
							"cntrycode" : {
								"$substrBytes" : [
									"$c_phone",
									{
										"$const" : 0
									},
									{
										"$const" : 2
									}
								]
							}
						},
						"inputStage" : {
							"stage" : "COLLSCAN",
							"filter" : {
								"c_acctbal" : {
									"$gt" : 0
								}
							},
							"direction" : "forward"
						}
					},
					"rejectedPlans" : [ ]
				},
				"executionStats" : {
					"executionSuccess" : true,
					"nReturned" : 1363614,
					"executionTimeMillis" : 126545,
					"totalKeysExamined" : 0,
					"totalDocsExamined" : 1500000,
					"executionStages" : {
						"stage" : "PROJECTION_DEFAULT",
						"nReturned" : 1363614,
						"executionTimeMillisEstimate" : 1193,
						"works" : 1500002,
						"advanced" : 1363614,
						"needTime" : 136387,
						"needYield" : 0,
						"saveState" : 1622,
						"restoreState" : 1622,
						"isEOF" : 1,
						"transformBy" : {
							"_id" : true,
							"c_acctbal" : true,
							"cntrycode" : {
								"$substrBytes" : [
									"$c_phone",
									{
										"$const" : 0
									},
									{
										"$const" : 2
									}
								]
							}
						},
						"inputStage" : {
							"stage" : "COLLSCAN",
							"filter" : {
								"c_acctbal" : {
									"$gt" : 0
								}
							},
							"nReturned" : 1363614,
							"executionTimeMillisEstimate" : 820,
							"works" : 1500002,
							"advanced" : 1363614,
							"needTime" : 136387,
							"needYield" : 0,
							"saveState" : 1622,
							"restoreState" : 1622,
							"isEOF" : 1,
							"direction" : "forward",
							"docsExamined" : 1500000
						}
					},
					"allPlansExecution" : [ ]
				}
			},
			"nReturned" : NumberLong(1363614),
			"executionTimeMillisEstimate" : NumberLong(4411)
		},
		{
			"$match" : {
				"cntrycode" : {
					"$in" : [
						"10",
						"15",
						"17",
						"21",
						"22",
						"25",
						"30"
					]
				}
			},
			"nReturned" : NumberLong(382022),
			"executionTimeMillisEstimate" : NumberLong(4491)
		},
		{
			"$lookup" : {
				"from" : "orders",
				"as" : "c_orders",
				"localField" : "_id",
				"foreignField" : "o_custkey"
			},
			"nReturned" : NumberLong(382022),
			"executionTimeMillisEstimate" : NumberLong(125545)
		},
		{
			"$facet" : {
				"sub_query" : [
					{
						"$teeConsumer" : {
							
						},
						"nReturned" : NumberLong(382022),
						"executionTimeMillisEstimate" : NumberLong(98312)
					},
					{
						"$group" : {
							"_id" : {
								"$const" : null
							},
							"c_acctbal_avg" : {
								"$avg" : "$c_acctbal"
							}
						},
						"nReturned" : NumberLong(1),
						"executionTimeMillisEstimate" : NumberLong(98397)
					}
				],
				"outer_query" : [
					{
						"$teeConsumer" : {
							
						},
						"nReturned" : NumberLong(382022),
						"executionTimeMillisEstimate" : NumberLong(27871)
					},
					{
						"$group" : {
							"_id" : "$cntrycode",
							"numcust" : {
								"$sum" : {
									"$cond" : [
										{
											"$eq" : [
												"$c_orders",
												{
													"$const" : [ ]
												}
											]
										},
										{
											"$const" : 1
										},
										{
											"$const" : 0
										}
									]
								}
							},
							"totacctbal" : {
								"$sum" : {
									"$cond" : [
										{
											"$eq" : [
												"$c_orders",
												{
													"$const" : [ ]
												}
											]
										},
										"$c_acctbal",
										{
											"$const" : 0
										}
									]
								}
							},
							"c_acctbals" : {
								"$push" : {
									"$cond" : [
										{
											"$eq" : [
												"$c_orders",
												{
													"$const" : [ ]
												}
											]
										},
										"$c_acctbal",
										"$$REMOVE"
									]
								}
							}
						},
						"nReturned" : NumberLong(7),
						"executionTimeMillisEstimate" : NumberLong(28125)
					}
				]
			},
			"nReturned" : NumberLong(1),
			"executionTimeMillisEstimate" : NumberLong(126522)
		},
		{
			"$unwind" : {
				"path" : "$outer_query"
			},
			"nReturned" : NumberLong(7),
			"executionTimeMillisEstimate" : NumberLong(126522)
		},
		{
			"$unwind" : {
				"path" : "$sub_query"
			},
			"nReturned" : NumberLong(7),
			"executionTimeMillisEstimate" : NumberLong(126522)
		},
		{
			"$project" : {
				"_id" : "$outer_query._id",
				"numcust" : "$outer_query.numcust",
				"totacctbal" : "$outer_query.totacctbal",
				"c_acctbals" : {
					"$filter" : {
						"input" : "$outer_query.c_acctbals",
						"as" : "c_acctbal",
						"cond" : {
							"$lte" : [
								"$$c_acctbal",
								"$sub_query.c_acctbal_avg"
							]
						}
					}
				}
			},
			"nReturned" : NumberLong(7),
			"executionTimeMillisEstimate" : NumberLong(126538)
		},
		{
			"$project" : {
				"_id" : true,
				"numcust" : {
					"$subtract" : [
						"$numcust",
						{
							"$size" : [
								"$c_acctbals"
							]
						}
					]
				},
				"totacctbal" : {
					"$subtract" : [
						"$totacctbal",
						{
							"$reduce" : {
								"input" : "$c_acctbals",
								"initialValue" : {
									"$const" : 0
								},
								"in" : {
									"$add" : [
										"$$value",
										"$$this"
									]
								}
							}
						}
					]
				}
			},
			"nReturned" : NumberLong(7),
			"executionTimeMillisEstimate" : NumberLong(126538)
		},
		{
			"$sort" : {
				"sortKey" : {
					"_id" : 1
				}
			},
			"nReturned" : NumberLong(7),
			"executionTimeMillisEstimate" : NumberLong(126538)
		}
	],
	"serverInfo" : {
		"host" : "dblab.cecsresearch.org",
		"port" : 27017,
		"version" : "4.4.12",
		"gitVersion" : "51475a8c4d9856eb1461137e7539a0a763cc85dc"
	},
	"ok" : 1
}


{
	"stages" : [
		{
			"$cursor" : {
				"queryPlanner" : {
					"plannerVersion" : 1,
					"namespace" : "tpch_1.customer",
					"indexFilterSet" : false,
					"parsedQuery" : {
						"c_acctbal" : {
							"$gt" : 0
						}
					},
					"queryHash" : "B4A855D2",
					"planCacheKey" : "B4A855D2",
					"winningPlan" : {
						"stage" : "PROJECTION_DEFAULT",
						"transformBy" : {
							"_id" : true,
							"c_acctbal" : true,
							"cntrycode" : {
								"$substrBytes" : [
									"$c_phone",
									{
										"$const" : 0
									},
									{
										"$const" : 2
									}
								]
							}
						},
						"inputStage" : {
							"stage" : "COLLSCAN",
							"filter" : {
								"c_acctbal" : {
									"$gt" : 0
								}
							},
							"direction" : "forward"
						}
					},
					"rejectedPlans" : [ ]
				},
				"executionStats" : {
					"executionSuccess" : true,
					"nReturned" : 1363614,
					"executionTimeMillis" : 126129,
					"totalKeysExamined" : 0,
					"totalDocsExamined" : 1500000,
					"executionStages" : {
						"stage" : "PROJECTION_DEFAULT",
						"nReturned" : 1363614,
						"executionTimeMillisEstimate" : 1231,
						"works" : 1500002,
						"advanced" : 1363614,
						"needTime" : 136387,
						"needYield" : 0,
						"saveState" : 1620,
						"restoreState" : 1620,
						"isEOF" : 1,
						"transformBy" : {
							"_id" : true,
							"c_acctbal" : true,
							"cntrycode" : {
								"$substrBytes" : [
									"$c_phone",
									{
										"$const" : 0
									},
									{
										"$const" : 2
									}
								]
							}
						},
						"inputStage" : {
							"stage" : "COLLSCAN",
							"filter" : {
								"c_acctbal" : {
									"$gt" : 0
								}
							},
							"nReturned" : 1363614,
							"executionTimeMillisEstimate" : 791,
							"works" : 1500002,
							"advanced" : 1363614,
							"needTime" : 136387,
							"needYield" : 0,
							"saveState" : 1620,
							"restoreState" : 1620,
							"isEOF" : 1,
							"direction" : "forward",
							"docsExamined" : 1500000
						}
					},
					"allPlansExecution" : [ ]
				}
			},
			"nReturned" : NumberLong(1363614),
			"executionTimeMillisEstimate" : NumberLong(4421)
		},
		{
			"$match" : {
				"cntrycode" : {
					"$in" : [
						"10",
						"15",
						"17",
						"21",
						"22",
						"25",
						"30"
					]
				}
			},
			"nReturned" : NumberLong(382022),
			"executionTimeMillisEstimate" : NumberLong(4490)
		},
		{
			"$lookup" : {
				"from" : "orders",
				"as" : "c_orders",
				"localField" : "_id",
				"foreignField" : "o_custkey"
			},
			"nReturned" : NumberLong(382022),
			"executionTimeMillisEstimate" : NumberLong(125127)
		},
		{
			"$facet" : {
				"sub_query" : [
					{
						"$teeConsumer" : {
							
						},
						"nReturned" : NumberLong(382022),
						"executionTimeMillisEstimate" : NumberLong(97919)
					},
					{
						"$group" : {
							"_id" : {
								"$const" : null
							},
							"c_acctbal_avg" : {
								"$avg" : "$c_acctbal"
							}
						},
						"nReturned" : NumberLong(1),
						"executionTimeMillisEstimate" : NumberLong(98024)
					}
				],
				"outer_query" : [
					{
						"$teeConsumer" : {
							
						},
						"nReturned" : NumberLong(382022),
						"executionTimeMillisEstimate" : NumberLong(27831)
					},
					{
						"$group" : {
							"_id" : "$cntrycode",
							"numcust" : {
								"$sum" : {
									"$cond" : [
										{
											"$eq" : [
												"$c_orders",
												{
													"$const" : [ ]
												}
											]
										},
										{
											"$const" : 1
										},
										{
											"$const" : 0
										}
									]
								}
							},
							"totacctbal" : {
								"$sum" : {
									"$cond" : [
										{
											"$eq" : [
												"$c_orders",
												{
													"$const" : [ ]
												}
											]
										},
										"$c_acctbal",
										{
											"$const" : 0
										}
									]
								}
							},
							"c_acctbals" : {
								"$push" : {
									"$cond" : [
										{
											"$eq" : [
												"$c_orders",
												{
													"$const" : [ ]
												}
											]
										},
										"$c_acctbal",
										"$$REMOVE"
									]
								}
							}
						},
						"nReturned" : NumberLong(7),
						"executionTimeMillisEstimate" : NumberLong(28081)
					}
				]
			},
			"nReturned" : NumberLong(1),
			"executionTimeMillisEstimate" : NumberLong(126105)
		},
		{
			"$unwind" : {
				"path" : "$outer_query"
			},
			"nReturned" : NumberLong(7),
			"executionTimeMillisEstimate" : NumberLong(126105)
		},
		{
			"$unwind" : {
				"path" : "$sub_query"
			},
			"nReturned" : NumberLong(7),
			"executionTimeMillisEstimate" : NumberLong(126105)
		},
		{
			"$project" : {
				"_id" : "$outer_query._id",
				"numcust" : "$outer_query.numcust",
				"totacctbal" : "$outer_query.totacctbal",
				"c_acctbals" : {
					"$filter" : {
						"input" : "$outer_query.c_acctbals",
						"as" : "c_acctbal",
						"cond" : {
							"$lte" : [
								"$$c_acctbal",
								"$sub_query.c_acctbal_avg"
							]
						}
					}
				}
			},
			"nReturned" : NumberLong(7),
			"executionTimeMillisEstimate" : NumberLong(126122)
		},
		{
			"$project" : {
				"_id" : true,
				"numcust" : {
					"$subtract" : [
						"$numcust",
						{
							"$size" : [
								"$c_acctbals"
							]
						}
					]
				},
				"totacctbal" : {
					"$subtract" : [
						"$totacctbal",
						{
							"$reduce" : {
								"input" : "$c_acctbals",
								"initialValue" : {
									"$const" : 0
								},
								"in" : {
									"$add" : [
										"$$value",
										"$$this"
									]
								}
							}
						}
					]
				}
			},
			"nReturned" : NumberLong(7),
			"executionTimeMillisEstimate" : NumberLong(126122)
		},
		{
			"$sort" : {
				"sortKey" : {
					"_id" : 1
				}
			},
			"nReturned" : NumberLong(7),
			"executionTimeMillisEstimate" : NumberLong(126122)
		}
	],
	"serverInfo" : {
		"host" : "dblab.cecsresearch.org",
		"port" : 27017,
		"version" : "4.4.12",
		"gitVersion" : "51475a8c4d9856eb1461137e7539a0a763cc85dc"
	},
	"ok" : 1
}


{
	"stages" : [
		{
			"$cursor" : {
				"queryPlanner" : {
					"plannerVersion" : 1,
					"namespace" : "tpch_1.customer",
					"indexFilterSet" : false,
					"parsedQuery" : {
						"c_acctbal" : {
							"$gt" : 0
						}
					},
					"queryHash" : "B4A855D2",
					"planCacheKey" : "B4A855D2",
					"winningPlan" : {
						"stage" : "PROJECTION_DEFAULT",
						"transformBy" : {
							"_id" : true,
							"c_acctbal" : true,
							"cntrycode" : {
								"$substrBytes" : [
									"$c_phone",
									{
										"$const" : 0
									},
									{
										"$const" : 2
									}
								]
							}
						},
						"inputStage" : {
							"stage" : "COLLSCAN",
							"filter" : {
								"c_acctbal" : {
									"$gt" : 0
								}
							},
							"direction" : "forward"
						}
					},
					"rejectedPlans" : [ ]
				},
				"executionStats" : {
					"executionSuccess" : true,
					"nReturned" : 1363614,
					"executionTimeMillis" : 125733,
					"totalKeysExamined" : 0,
					"totalDocsExamined" : 1500000,
					"executionStages" : {
						"stage" : "PROJECTION_DEFAULT",
						"nReturned" : 1363614,
						"executionTimeMillisEstimate" : 1054,
						"works" : 1500002,
						"advanced" : 1363614,
						"needTime" : 136387,
						"needYield" : 0,
						"saveState" : 1620,
						"restoreState" : 1620,
						"isEOF" : 1,
						"transformBy" : {
							"_id" : true,
							"c_acctbal" : true,
							"cntrycode" : {
								"$substrBytes" : [
									"$c_phone",
									{
										"$const" : 0
									},
									{
										"$const" : 2
									}
								]
							}
						},
						"inputStage" : {
							"stage" : "COLLSCAN",
							"filter" : {
								"c_acctbal" : {
									"$gt" : 0
								}
							},
							"nReturned" : 1363614,
							"executionTimeMillisEstimate" : 704,
							"works" : 1500002,
							"advanced" : 1363614,
							"needTime" : 136387,
							"needYield" : 0,
							"saveState" : 1620,
							"restoreState" : 1620,
							"isEOF" : 1,
							"direction" : "forward",
							"docsExamined" : 1500000
						}
					},
					"allPlansExecution" : [ ]
				}
			},
			"nReturned" : NumberLong(1363614),
			"executionTimeMillisEstimate" : NumberLong(4286)
		},
		{
			"$match" : {
				"cntrycode" : {
					"$in" : [
						"10",
						"15",
						"17",
						"21",
						"22",
						"25",
						"30"
					]
				}
			},
			"nReturned" : NumberLong(382022),
			"executionTimeMillisEstimate" : NumberLong(4353)
		},
		{
			"$lookup" : {
				"from" : "orders",
				"as" : "c_orders",
				"localField" : "_id",
				"foreignField" : "o_custkey"
			},
			"nReturned" : NumberLong(382022),
			"executionTimeMillisEstimate" : NumberLong(124718)
		},
		{
			"$facet" : {
				"sub_query" : [
					{
						"$teeConsumer" : {
							
						},
						"nReturned" : NumberLong(382022),
						"executionTimeMillisEstimate" : NumberLong(97527)
					},
					{
						"$group" : {
							"_id" : {
								"$const" : null
							},
							"c_acctbal_avg" : {
								"$avg" : "$c_acctbal"
							}
						},
						"nReturned" : NumberLong(1),
						"executionTimeMillisEstimate" : NumberLong(97613)
					}
				],
				"outer_query" : [
					{
						"$teeConsumer" : {
							
						},
						"nReturned" : NumberLong(382022),
						"executionTimeMillisEstimate" : NumberLong(27870)
					},
					{
						"$group" : {
							"_id" : "$cntrycode",
							"numcust" : {
								"$sum" : {
									"$cond" : [
										{
											"$eq" : [
												"$c_orders",
												{
													"$const" : [ ]
												}
											]
										},
										{
											"$const" : 1
										},
										{
											"$const" : 0
										}
									]
								}
							},
							"totacctbal" : {
								"$sum" : {
									"$cond" : [
										{
											"$eq" : [
												"$c_orders",
												{
													"$const" : [ ]
												}
											]
										},
										"$c_acctbal",
										{
											"$const" : 0
										}
									]
								}
							},
							"c_acctbals" : {
								"$push" : {
									"$cond" : [
										{
											"$eq" : [
												"$c_orders",
												{
													"$const" : [ ]
												}
											]
										},
										"$c_acctbal",
										"$$REMOVE"
									]
								}
							}
						},
						"nReturned" : NumberLong(7),
						"executionTimeMillisEstimate" : NumberLong(28097)
					}
				]
			},
			"nReturned" : NumberLong(1),
			"executionTimeMillisEstimate" : NumberLong(125710)
		},
		{
			"$unwind" : {
				"path" : "$outer_query"
			},
			"nReturned" : NumberLong(7),
			"executionTimeMillisEstimate" : NumberLong(125710)
		},
		{
			"$unwind" : {
				"path" : "$sub_query"
			},
			"nReturned" : NumberLong(7),
			"executionTimeMillisEstimate" : NumberLong(125710)
		},
		{
			"$project" : {
				"_id" : "$outer_query._id",
				"numcust" : "$outer_query.numcust",
				"totacctbal" : "$outer_query.totacctbal",
				"c_acctbals" : {
					"$filter" : {
						"input" : "$outer_query.c_acctbals",
						"as" : "c_acctbal",
						"cond" : {
							"$lte" : [
								"$$c_acctbal",
								"$sub_query.c_acctbal_avg"
							]
						}
					}
				}
			},
			"nReturned" : NumberLong(7),
			"executionTimeMillisEstimate" : NumberLong(125719)
		},
		{
			"$project" : {
				"_id" : true,
				"numcust" : {
					"$subtract" : [
						"$numcust",
						{
							"$size" : [
								"$c_acctbals"
							]
						}
					]
				},
				"totacctbal" : {
					"$subtract" : [
						"$totacctbal",
						{
							"$reduce" : {
								"input" : "$c_acctbals",
								"initialValue" : {
									"$const" : 0
								},
								"in" : {
									"$add" : [
										"$$value",
										"$$this"
									]
								}
							}
						}
					]
				}
			},
			"nReturned" : NumberLong(7),
			"executionTimeMillisEstimate" : NumberLong(125726)
		},
		{
			"$sort" : {
				"sortKey" : {
					"_id" : 1
				}
			},
			"nReturned" : NumberLong(7),
			"executionTimeMillisEstimate" : NumberLong(125726)
		}
	],
	"serverInfo" : {
		"host" : "dblab.cecsresearch.org",
		"port" : 27017,
		"version" : "4.4.12",
		"gitVersion" : "51475a8c4d9856eb1461137e7539a0a763cc85dc"
	},
	"ok" : 1
}


{
	"stages" : [
		{
			"$cursor" : {
				"queryPlanner" : {
					"plannerVersion" : 1,
					"namespace" : "tpch_1.customer",
					"indexFilterSet" : false,
					"parsedQuery" : {
						"c_acctbal" : {
							"$gt" : 0
						}
					},
					"queryHash" : "B4A855D2",
					"planCacheKey" : "B4A855D2",
					"winningPlan" : {
						"stage" : "PROJECTION_DEFAULT",
						"transformBy" : {
							"_id" : true,
							"c_acctbal" : true,
							"cntrycode" : {
								"$substrBytes" : [
									"$c_phone",
									{
										"$const" : 0
									},
									{
										"$const" : 2
									}
								]
							}
						},
						"inputStage" : {
							"stage" : "COLLSCAN",
							"filter" : {
								"c_acctbal" : {
									"$gt" : 0
								}
							},
							"direction" : "forward"
						}
					},
					"rejectedPlans" : [ ]
				},
				"executionStats" : {
					"executionSuccess" : true,
					"nReturned" : 1363614,
					"executionTimeMillis" : 126290,
					"totalKeysExamined" : 0,
					"totalDocsExamined" : 1500000,
					"executionStages" : {
						"stage" : "PROJECTION_DEFAULT",
						"nReturned" : 1363614,
						"executionTimeMillisEstimate" : 1153,
						"works" : 1500002,
						"advanced" : 1363614,
						"needTime" : 136387,
						"needYield" : 0,
						"saveState" : 1619,
						"restoreState" : 1619,
						"isEOF" : 1,
						"transformBy" : {
							"_id" : true,
							"c_acctbal" : true,
							"cntrycode" : {
								"$substrBytes" : [
									"$c_phone",
									{
										"$const" : 0
									},
									{
										"$const" : 2
									}
								]
							}
						},
						"inputStage" : {
							"stage" : "COLLSCAN",
							"filter" : {
								"c_acctbal" : {
									"$gt" : 0
								}
							},
							"nReturned" : 1363614,
							"executionTimeMillisEstimate" : 788,
							"works" : 1500002,
							"advanced" : 1363614,
							"needTime" : 136387,
							"needYield" : 0,
							"saveState" : 1619,
							"restoreState" : 1619,
							"isEOF" : 1,
							"direction" : "forward",
							"docsExamined" : 1500000
						}
					},
					"allPlansExecution" : [ ]
				}
			},
			"nReturned" : NumberLong(1363614),
			"executionTimeMillisEstimate" : NumberLong(4407)
		},
		{
			"$match" : {
				"cntrycode" : {
					"$in" : [
						"10",
						"15",
						"17",
						"21",
						"22",
						"25",
						"30"
					]
				}
			},
			"nReturned" : NumberLong(382022),
			"executionTimeMillisEstimate" : NumberLong(4474)
		},
		{
			"$lookup" : {
				"from" : "orders",
				"as" : "c_orders",
				"localField" : "_id",
				"foreignField" : "o_custkey"
			},
			"nReturned" : NumberLong(382022),
			"executionTimeMillisEstimate" : NumberLong(125286)
		},
		{
			"$facet" : {
				"sub_query" : [
					{
						"$teeConsumer" : {
							
						},
						"nReturned" : NumberLong(382022),
						"executionTimeMillisEstimate" : NumberLong(98053)
					},
					{
						"$group" : {
							"_id" : {
								"$const" : null
							},
							"c_acctbal_avg" : {
								"$avg" : "$c_acctbal"
							}
						},
						"nReturned" : NumberLong(1),
						"executionTimeMillisEstimate" : NumberLong(98133)
					}
				],
				"outer_query" : [
					{
						"$teeConsumer" : {
							
						},
						"nReturned" : NumberLong(382022),
						"executionTimeMillisEstimate" : NumberLong(27893)
					},
					{
						"$group" : {
							"_id" : "$cntrycode",
							"numcust" : {
								"$sum" : {
									"$cond" : [
										{
											"$eq" : [
												"$c_orders",
												{
													"$const" : [ ]
												}
											]
										},
										{
											"$const" : 1
										},
										{
											"$const" : 0
										}
									]
								}
							},
							"totacctbal" : {
								"$sum" : {
									"$cond" : [
										{
											"$eq" : [
												"$c_orders",
												{
													"$const" : [ ]
												}
											]
										},
										"$c_acctbal",
										{
											"$const" : 0
										}
									]
								}
							},
							"c_acctbals" : {
								"$push" : {
									"$cond" : [
										{
											"$eq" : [
												"$c_orders",
												{
													"$const" : [ ]
												}
											]
										},
										"$c_acctbal",
										"$$REMOVE"
									]
								}
							}
						},
						"nReturned" : NumberLong(7),
						"executionTimeMillisEstimate" : NumberLong(28134)
					}
				]
			},
			"nReturned" : NumberLong(1),
			"executionTimeMillisEstimate" : NumberLong(126267)
		},
		{
			"$unwind" : {
				"path" : "$outer_query"
			},
			"nReturned" : NumberLong(7),
			"executionTimeMillisEstimate" : NumberLong(126267)
		},
		{
			"$unwind" : {
				"path" : "$sub_query"
			},
			"nReturned" : NumberLong(7),
			"executionTimeMillisEstimate" : NumberLong(126267)
		},
		{
			"$project" : {
				"_id" : "$outer_query._id",
				"numcust" : "$outer_query.numcust",
				"totacctbal" : "$outer_query.totacctbal",
				"c_acctbals" : {
					"$filter" : {
						"input" : "$outer_query.c_acctbals",
						"as" : "c_acctbal",
						"cond" : {
							"$lte" : [
								"$$c_acctbal",
								"$sub_query.c_acctbal_avg"
							]
						}
					}
				}
			},
			"nReturned" : NumberLong(7),
			"executionTimeMillisEstimate" : NumberLong(126283)
		},
		{
			"$project" : {
				"_id" : true,
				"numcust" : {
					"$subtract" : [
						"$numcust",
						{
							"$size" : [
								"$c_acctbals"
							]
						}
					]
				},
				"totacctbal" : {
					"$subtract" : [
						"$totacctbal",
						{
							"$reduce" : {
								"input" : "$c_acctbals",
								"initialValue" : {
									"$const" : 0
								},
								"in" : {
									"$add" : [
										"$$value",
										"$$this"
									]
								}
							}
						}
					]
				}
			},
			"nReturned" : NumberLong(7),
			"executionTimeMillisEstimate" : NumberLong(126283)
		},
		{
			"$sort" : {
				"sortKey" : {
					"_id" : 1
				}
			},
			"nReturned" : NumberLong(7),
			"executionTimeMillisEstimate" : NumberLong(126283)
		}
	],
	"serverInfo" : {
		"host" : "dblab.cecsresearch.org",
		"port" : 27017,
		"version" : "4.4.12",
		"gitVersion" : "51475a8c4d9856eb1461137e7539a0a763cc85dc"
	},
	"ok" : 1
}


